[
 {
  "user": "8c5df4821f8832d1ed098af684103ee4",
  "revenue": "215.739099",
  "cost_ratio": 103,
  "cost": 17650,
  "counters": {
   "state_changes": 0,
   "rate_changes": 20,
   "statedown": 0,
   "stateup": 0,
   "filter_tcp": 0,
   "rateup": 12,
   "all_changes": 20,
   "filter_udp": 0,
   "filter_changes": 0,
   "ratedown": 8
  },
  "_0_init": "2015-11-17T01:12:45.141Z",
  "time": 510,
  "changes": [
   {
    "node": "vnet:ralph-router:node=nsps1",
    "iface": "vnet:ralph-router:ipv4=172.20.13.6/24",
    "key": "rate",
    "to": 10,
    "from": 50
   },
   {
    "node": "vnet:ralph-router:node=nspr3",
    "iface": "vnet:ralph-router:ipv4=172.30.0.5/30",
    "key": "rate",
    "to": 100,
    "from": 50
   },
   {
    "node": "vnet:ralph-router:node=nspr3",
    "iface": "vnet:ralph-router:ipv4=172.20.13.5/24",
    "key": "rate",
    "to": 10,
    "from": 50
   },
   {
    "node": "vnet:ralph-router:node=nspr3",
    "iface": "vnet:ralph-router:ipv4=172.30.0.106/30",
    "key": "rate",
    "to": 10,
    "from": 50
   },
   {
    "node": "vnet:ralph-router:node=nspr3",
    "iface": "vnet:ralph-router:ipv4=172.30.0.89/30",
    "key": "rate",
    "to": 75,
    "from": 50
   },
   {
    "node": "vnet:ralph-router:node=westr2",
    "iface": "vnet:ralph-router:ipv4=172.30.0.13/30",
    "key": "rate",
    "to": 100,
    "from": 50
   },
   {
    "node": "vnet:ralph-router:node=westr2",
    "iface": "vnet:ralph-router:ipv4=172.30.0.6/30",
    "key": "rate",
    "to": 100,
    "from": 50
   },
   {
    "node": "vnet:ralph-router:node=server2",
    "iface": "vnet:ralph-router:ipv4=172.30.0.46/30",
    "key": "rate",
    "to": 100,
    "from": 75
   },
   {
    "node": "vnet:ralph-router:node=westr3",
    "iface": "vnet:ralph-router:ipv4=172.30.0.14/30",
    "key": "rate",
    "to": 100,
    "from": 50
   },
   {
    "node": "vnet:ralph-router:node=custr2",
    "iface": "vnet:ralph-router:ipv4=172.30.0.45/30",
    "key": "rate",
    "to": 100,
    "from": 75
   },
   {
    "node": "vnet:ralph-router:node=custr2",
    "iface": "vnet:ralph-router:ipv4=172.30.0.90/30",
    "key": "rate",
    "to": 75,
    "from": 50
   },
   {
    "node": "vnet:ralph-router:node=eastr3",
    "iface": "vnet:ralph-router:ipv4=172.30.0.29/30",
    "key": "rate",
    "to": 10,
    "from": 50
   },
   {
    "node": "vnet:ralph-router:node=server1",
    "iface": "vnet:ralph-router:ipv4=172.30.0.2/30",
    "key": "rate",
    "to": 100,
    "from": 75
   },
   {
    "node": "vnet:ralph-router:node=eastr2",
    "iface": "vnet:ralph-router:ipv4=172.30.0.30/30",
    "key": "rate",
    "to": 10,
    "from": 50
   },
   {
    "node": "vnet:ralph-router:node=custr1",
    "iface": "vnet:ralph-router:ipv4=172.30.0.21/30",
    "key": "rate",
    "to": 100,
    "from": 50
   },
   {
    "node": "vnet:ralph-router:node=custr1",
    "iface": "vnet:ralph-router:ipv4=172.30.0.1/30",
    "key": "rate",
    "to": 100,
    "from": 75
   },
   {
    "node": "vnet:ralph-router:node=custr1",
    "iface": "vnet:ralph-router:ipv4=172.30.0.98/30",
    "key": "rate",
    "to": 10,
    "from": 50
   },
   {
    "node": "vnet:ralph-router:node=eastr1",
    "iface": "vnet:ralph-router:ipv4=172.30.0.22/30",
    "key": "rate",
    "to": 100,
    "from": 50
   },
   {
    "node": "vnet:ralph-router:node=nspr1",
    "iface": "vnet:ralph-router:ipv4=172.30.0.97/30",
    "key": "rate",
    "to": 10,
    "from": 50
   },
   {
    "node": "vnet:ralph-router:node=nspr1",
    "iface": "vnet:ralph-router:ipv4=172.30.0.105/30",
    "key": "rate",
    "to": 10,
    "from": 50
   }
  ],
  "net_type": 1,
  "rev": 92
 },
 {
  "user": "3bf208d7ec1e6edbb67961fd7f5a7e3a",
  "revenue": "78.575032",
  "cost_ratio": 103,
  "cost": 17600,
  "counters": {
   "state_changes": 2,
   "rate_changes": 4,
   "statedown": 2,
   "stateup": 0,
   "filter_tcp": 0,
   "rateup": 2,
   "all_changes": 8,
   "filter_udp": 2,
   "filter_changes": 2,
   "ratedown": 2
  },
  "_0_init": "2015-11-17T01:21:28.583Z",
  "time": 184,
  "changes": [
   {
    "node": "vnet:ralph-router:node=westr1",
    "iface": "vnet:ralph-router:ipv4=172.30.0.114/30",
    "key": "filter",
    "to": "udp",
    "from": ""
   },
   {
    "node": "vnet:ralph-router:node=nsps1",
    "iface": "vnet:ralph-router:ipv4=172.20.13.6/24",
    "key": "rate",
    "to": 10,
    "from": 50
   },
   {
    "node": "vnet:ralph-router:node=nspr3",
    "iface": "vnet:ralph-router:ipv4=172.30.0.5/30",
    "key": "rate",
    "to": 100,
    "from": 50
   },
   {
    "node": "vnet:ralph-router:node=nspr3",
    "iface": "vnet:ralph-router:ipv4=172.20.13.5/24",
    "key": "rate",
    "to": 10,
    "from": 50
   },
   {
    "node": "vnet:ralph-router:node=westr2",
    "iface": "vnet:ralph-router:ipv4=172.30.0.6/30",
    "key": "rate",
    "to": 100,
    "from": 50
   },
   {
    "node": "vnet:ralph-router:node=custr1",
    "iface": "vnet:ralph-router:ipv4=172.30.0.21/30",
    "key": "state",
    "to": "down",
    "from": "up"
   },
   {
    "node": "vnet:ralph-router:node=eastr1",
    "iface": "vnet:ralph-router:ipv4=172.30.0.22/30",
    "key": "state",
    "to": "down",
    "from": "up"
   },
   {
    "node": "vnet:ralph-router:node=nspr1",
    "iface": "vnet:ralph-router:ipv4=172.30.0.113/30",
    "key": "filter",
    "to": "udp",
    "from": ""
   }
  ],
  "net_type": 1,
  "rev": 33
 },
 {
  "user": "d16e6a331d45d3803c9d2d55720d5c7f",
  "revenue": "200.31256574999998",
  "cost_ratio": 97,
  "cost": 12700,
  "counters": {
   "state_changes": 0,
   "rate_changes": 4,
   "statedown": 0,
   "stateup": 0,
   "filter_tcp": 0,
   "rateup": 0,
   "all_changes": 6,
   "filter_udp": 2,
   "filter_changes": 2,
   "ratedown": 4
  },
  "_0_init": "2015-11-17T01:59:09.577Z",
  "time": 155,
  "changes": [
   {
    "node": "vnet:ralph-router:node=west-r1",
    "iface": "vnet:ralph-router:ipv4=172.30.0.57/30",
    "key": "rate",
    "to": 10,
    "from": 50
   },
   {
    "node": "vnet:ralph-router:node=firewall1",
    "iface": "vnet:ralph-router:ipv4=172.30.0.62/30",
    "key": "rate",
    "to": 10,
    "from": 100
   },
   {
    "node": "vnet:ralph-router:node=client12",
    "iface": "vnet:ralph-router:ipv4=172.30.0.58/30",
    "key": "rate",
    "to": 10,
    "from": 50
   },
   {
    "node": "vnet:ralph-router:node=router1",
    "iface": "vnet:ralph-router:ipv4=172.30.0.61/30",
    "key": "rate",
    "to": 10,
    "from": 100
   },
   {
    "node": "vnet:ralph-router:node=upstream-r2",
    "iface": "vnet:ralph-router:ipv4=172.30.0.74/30",
    "key": "filter",
    "to": "udp",
    "from": ""
   },
   {
    "node": "vnet:ralph-router:node=firewall2",
    "iface": "vnet:ralph-router:ipv4=172.30.0.73/30",
    "key": "filter",
    "to": "udp",
    "from": ""
   }
  ],
  "net_type": 2,
  "rev": 138
 },
 {
  "user": "cc7232bc04acce9d3ee09e6eaaf97c28",
  "revenue": "151.02343815",
  "cost_ratio": 123,
  "cost": 16000,
  "counters": {
   "state_changes": 0,
   "rate_changes": 0,
   "statedown": 0,
   "stateup": 0,
   "filter_tcp": 0,
   "rateup": 0,
   "all_changes": 6,
   "filter_udp": 6,
   "filter_changes": 6,
   "ratedown": 0
  },
  "_0_init": "2015-11-17T20:30:14.774Z",
  "time": 32,
  "changes": [
   {
    "node": "vnet:ralph-router:node=west-r1",
    "iface": "vnet:ralph-router:ipv4=172.30.0.57/30",
    "key": "filter",
    "to": "udp",
    "from": ""
   },
   {
    "node": "vnet:ralph-router:node=east-r1",
    "iface": "vnet:ralph-router:ipv4=172.30.0.37/30",
    "key": "filter",
    "to": "udp",
    "from": ""
   },
   {
    "node": "vnet:ralph-router:node=client12",
    "iface": "vnet:ralph-router:ipv4=172.30.0.58/30",
    "key": "filter",
    "to": "udp",
    "from": ""
   },
   {
    "node": "vnet:ralph-router:node=client8",
    "iface": "vnet:ralph-router:ipv4=172.30.0.38/30",
    "key": "filter",
    "to": "udp",
    "from": ""
   },
   {
    "node": "vnet:ralph-router:node=upstream-r2",
    "iface": "vnet:ralph-router:ipv4=172.30.0.74/30",
    "key": "filter",
    "to": "udp",
    "from": ""
   },
   {
    "node": "vnet:ralph-router:node=firewall2",
    "iface": "vnet:ralph-router:ipv4=172.30.0.73/30",
    "key": "filter",
    "to": "udp",
    "from": ""
   }
  ],
  "net_type": 2,
  "rev": 104
 },
 {
  "user": "b27d8a149e5e65f62120986cf530fe7d",
  "revenue": "219.00990249999995",
  "cost_ratio": 164,
  "cost": 28000,
  "counters": {
   "state_changes": 0,
   "rate_changes": 0,
   "statedown": 0,
   "stateup": 0,
   "filter_tcp": 0,
   "rateup": 0,
   "all_changes": 22,
   "filter_udp": 22,
   "filter_changes": 22,
   "ratedown": 0
  },
  "_0_init": "2015-11-17T21:06:27.324Z",
  "time": 294,
  "changes": [
   {
    "node": "vnet:ralph-router:node=westr1",
    "iface": "vnet:ralph-router:ipv4=172.30.0.114/30",
    "key": "filter",
    "to": "udp",
    "from": ""
   },
   {
    "node": "vnet:ralph-router:node=nsps1",
    "iface": "vnet:ralph-router:ipv4=172.20.13.8/24",
    "key": "filter",
    "to": "udp",
    "from": ""
   },
   {
    "node": "vnet:ralph-router:node=nsps1",
    "iface": "vnet:ralph-router:ipv4=172.20.13.6/24",
    "key": "filter",
    "to": "udp",
    "from": ""
   },
   {
    "node": "vnet:ralph-router:node=nsps1",
    "iface": "vnet:ralph-router:ipv4=172.20.13.2/24",
    "key": "filter",
    "to": "udp",
    "from": ""
   },
   {
    "node": "vnet:ralph-router:node=nspr3",
    "iface": "vnet:ralph-router:ipv4=172.20.13.5/24",
    "key": "filter",
    "to": "udp",
    "from": ""
   },
   {
    "node": "vnet:ralph-router:node=nspr3",
    "iface": "vnet:ralph-router:ipv4=172.30.0.89/30",
    "key": "filter",
    "to": "udp",
    "from": ""
   },
   {
    "node": "vnet:ralph-router:node=server2",
    "iface": "vnet:ralph-router:ipv4=172.30.0.46/30",
    "key": "filter",
    "to": "udp",
    "from": ""
   },
   {
    "node": "vnet:ralph-router:node=client5",
    "iface": "vnet:ralph-router:ipv4=172.30.0.58/30",
    "key": "filter",
    "to": "udp",
    "from": ""
   },
   {
    "node": "vnet:ralph-router:node=westr3",
    "iface": "vnet:ralph-router:ipv4=172.30.0.57/30",
    "key": "filter",
    "to": "udp",
    "from": ""
   },
   {
    "node": "vnet:ralph-router:node=custr2",
    "iface": "vnet:ralph-router:ipv4=172.30.0.45/30",
    "key": "filter",
    "to": "udp",
    "from": ""
   },
   {
    "node": "vnet:ralph-router:node=custr2",
    "iface": "vnet:ralph-router:ipv4=172.30.0.90/30",
    "key": "filter",
    "to": "udp",
    "from": ""
   },
   {
    "node": "vnet:ralph-router:node=eastr3",
    "iface": "vnet:ralph-router:ipv4=172.30.0.34/30",
    "key": "filter",
    "to": "udp",
    "from": ""
   },
   {
    "node": "vnet:ralph-router:node=server1",
    "iface": "vnet:ralph-router:ipv4=172.30.0.2/30",
    "key": "filter",
    "to": "udp",
    "from": ""
   },
   {
    "node": "vnet:ralph-router:node=nspr4",
    "iface": "vnet:ralph-router:ipv4=172.30.0.33/30",
    "key": "filter",
    "to": "udp",
    "from": ""
   },
   {
    "node": "vnet:ralph-router:node=nspr4",
    "iface": "vnet:ralph-router:ipv4=172.20.13.7/24",
    "key": "filter",
    "to": "udp",
    "from": ""
   },
   {
    "node": "vnet:ralph-router:node=custr1",
    "iface": "vnet:ralph-router:ipv4=172.30.0.21/30",
    "key": "filter",
    "to": "udp",
    "from": ""
   },
   {
    "node": "vnet:ralph-router:node=custr1",
    "iface": "vnet:ralph-router:ipv4=172.30.0.1/30",
    "key": "filter",
    "to": "udp",
    "from": ""
   },
   {
    "node": "vnet:ralph-router:node=custr1",
    "iface": "vnet:ralph-router:ipv4=172.30.0.98/30",
    "key": "filter",
    "to": "udp",
    "from": ""
   },
   {
    "node": "vnet:ralph-router:node=eastr1",
    "iface": "vnet:ralph-router:ipv4=172.30.0.22/30",
    "key": "filter",
    "to": "udp",
    "from": ""
   },
   {
    "node": "vnet:ralph-router:node=nspr1",
    "iface": "vnet:ralph-router:ipv4=172.30.0.113/30",
    "key": "filter",
    "to": "udp",
    "from": ""
   },
   {
    "node": "vnet:ralph-router:node=nspr1",
    "iface": "vnet:ralph-router:ipv4=172.30.0.97/30",
    "key": "filter",
    "to": "udp",
    "from": ""
   },
   {
    "node": "vnet:ralph-router:node=nspr1",
    "iface": "vnet:ralph-router:ipv4=172.20.13.1/24",
    "key": "filter",
    "to": "udp",
    "from": ""
   }
  ],
  "net_type": 1,
  "rev": 94
 },
 {
  "user": "674f31346b837d5339ab85fd5ea022f5",
  "revenue": "189.23741875000002",
  "cost_ratio": 130,
  "cost": 17000,
  "counters": {
   "state_changes": 0,
   "rate_changes": 0,
   "statedown": 0,
   "stateup": 0,
   "filter_tcp": 0,
   "rateup": 0,
   "all_changes": 8,
   "filter_udp": 8,
   "filter_changes": 8,
   "ratedown": 0
  },
  "_0_init": "2015-11-18T16:19:42.764Z",
  "time": 105,
  "changes": [
   {
    "node": "vnet:ralph-router:node=west-r1",
    "iface": "vnet:ralph-router:ipv4=172.30.0.57/30",
    "key": "filter",
    "to": "udp",
    "from": ""
   },
   {
    "node": "vnet:ralph-router:node=firewall1",
    "iface": "vnet:ralph-router:ipv4=172.30.0.62/30",
    "key": "filter",
    "to": "udp",
    "from": ""
   },
   {
    "node": "vnet:ralph-router:node=east-r1",
    "iface": "vnet:ralph-router:ipv4=172.30.0.37/30",
    "key": "filter",
    "to": "udp",
    "from": ""
   },
   {
    "node": "vnet:ralph-router:node=client12",
    "iface": "vnet:ralph-router:ipv4=172.30.0.58/30",
    "key": "filter",
    "to": "udp",
    "from": ""
   },
   {
    "node": "vnet:ralph-router:node=router1",
    "iface": "vnet:ralph-router:ipv4=172.30.0.61/30",
    "key": "filter",
    "to": "udp",
    "from": ""
   },
   {
    "node": "vnet:ralph-router:node=client8",
    "iface": "vnet:ralph-router:ipv4=172.30.0.38/30",
    "key": "filter",
    "to": "udp",
    "from": ""
   },
   {
    "node": "vnet:ralph-router:node=upstream-r2",
    "iface": "vnet:ralph-router:ipv4=172.30.0.74/30",
    "key": "filter",
    "to": "udp",
    "from": ""
   },
   {
    "node": "vnet:ralph-router:node=firewall2",
    "iface": "vnet:ralph-router:ipv4=172.30.0.73/30",
    "key": "filter",
    "to": "udp",
    "from": ""
   }
  ],
  "net_type": 2,
  "rev": 130
 },
 {
  "user": "6f1e0e7a690aae61b6951c619a3edaa5",
  "revenue": "235.896702",
  "cost_ratio": 119,
  "cost": 15500,
  "counters": {
   "state_changes": 0,
   "rate_changes": 2,
   "statedown": 0,
   "stateup": 0,
   "filter_tcp": 0,
   "rateup": 2,
   "all_changes": 6,
   "filter_udp": 4,
   "filter_changes": 4,
   "ratedown": 0
  },
  "_0_init": "2015-11-18T21:46:04.869Z",
  "time": 125,
  "changes": [
   {
    "node": "vnet:ralph-router:node=upstream-r1",
    "iface": "vnet:ralph-router:ipv4=172.30.0.70/30",
    "key": "filter",
    "to": "udp",
    "from": ""
   },
   {
    "node": "vnet:ralph-router:node=firewall1",
    "iface": "vnet:ralph-router:ipv4=172.30.0.69/30",
    "key": "filter",
    "to": "udp",
    "from": ""
   },
   {
    "node": "vnet:ralph-router:node=east-r1",
    "iface": "vnet:ralph-router:ipv4=172.30.0.82/30",
    "key": "filter",
    "to": "udp",
    "from": ""
   },
   {
    "node": "vnet:ralph-router:node=upstream-r2",
    "iface": "vnet:ralph-router:ipv4=172.30.0.81/30",
    "key": "filter",
    "to": "udp",
    "from": ""
   },
   {
    "node": "vnet:ralph-router:node=upstream-r2",
    "iface": "vnet:ralph-router:ipv4=172.30.0.74/30",
    "key": "rate",
    "to": 100,
    "from": 50
   },
   {
    "node": "vnet:ralph-router:node=firewall2",
    "iface": "vnet:ralph-router:ipv4=172.30.0.73/30",
    "key": "rate",
    "to": 100,
    "from": 50
   }
  ],
  "net_type": 2,
  "rev": 162
 },
 {
  "user": "c5394fb4721a86ac4fa4e357b995a862",
  "revenue": "212.432524",
  "cost_ratio": 165,
  "cost": 21500,
  "counters": {
   "state_changes": 0,
   "rate_changes": 2,
   "statedown": 0,
   "stateup": 0,
   "filter_tcp": 5,
   "rateup": 2,
   "all_changes": 18,
   "filter_udp": 11,
   "filter_changes": 16,
   "ratedown": 0
  },
  "_0_init": "2015-11-18T22:02:52.075Z",
  "time": 244,
  "changes": [
   {
    "node": "vnet:ralph-router:node=client9",
    "iface": "vnet:ralph-router:ipv4=172.30.0.42/30",
    "key": "filter",
    "to": "udp",
    "from": ""
   },
   {
    "node": "vnet:ralph-router:node=upstream-r1",
    "iface": "vnet:ralph-router:ipv4=172.30.0.13/30",
    "key": "filter",
    "to": "tcp",
    "from": ""
   },
   {
    "node": "vnet:ralph-router:node=upstream-r1",
    "iface": "vnet:ralph-router:ipv4=172.30.0.17/30",
    "key": "filter",
    "to": "udp",
    "from": ""
   },
   {
    "node": "vnet:ralph-router:node=upstream-r1",
    "iface": "vnet:ralph-router:ipv4=172.30.0.70/30",
    "key": "filter",
    "to": "udp",
    "from": ""
   },
   {
    "node": "vnet:ralph-router:node=upstream-r1",
    "iface": "vnet:ralph-router:ipv4=172.30.0.77/30",
    "key": "filter",
    "to": "udp",
    "from": ""
   },
   {
    "node": "vnet:ralph-router:node=client2",
    "iface": "vnet:ralph-router:ipv4=172.30.0.14/30",
    "key": "filter",
    "to": "tcp",
    "from": ""
   },
   {
    "node": "vnet:ralph-router:node=firewall1",
    "iface": "vnet:ralph-router:ipv4=172.30.0.69/30",
    "key": "filter",
    "to": "udp",
    "from": ""
   },
   {
    "node": "vnet:ralph-router:node=client4",
    "iface": "vnet:ralph-router:ipv4=172.30.0.22/30",
    "key": "filter",
    "to": "udp",
    "from": ""
   },
   {
    "node": "vnet:ralph-router:node=east-r1",
    "iface": "vnet:ralph-router:ipv4=172.30.0.33/30",
    "key": "filter",
    "to": "tcp",
    "from": ""
   },
   {
    "node": "vnet:ralph-router:node=east-r1",
    "iface": "vnet:ralph-router:ipv4=172.30.0.37/30",
    "key": "filter",
    "to": "tcp",
    "from": ""
   },
   {
    "node": "vnet:ralph-router:node=east-r1",
    "iface": "vnet:ralph-router:ipv4=172.30.0.78/30",
    "key": "filter",
    "to": "udp",
    "from": ""
   },
   {
    "node": "vnet:ralph-router:node=east-r1",
    "iface": "vnet:ralph-router:ipv4=172.30.0.41/30",
    "key": "filter",
    "to": "udp",
    "from": ""
   },
   {
    "node": "vnet:ralph-router:node=client8",
    "iface": "vnet:ralph-router:ipv4=172.30.0.38/30",
    "key": "filter",
    "to": "udp",
    "from": ""
   },
   {
    "node": "vnet:ralph-router:node=upstream-r2",
    "iface": "vnet:ralph-router:ipv4=172.30.0.74/30",
    "key": "rate",
    "to": 100,
    "from": 50
   },
   {
    "node": "vnet:ralph-router:node=upstream-r2",
    "iface": "vnet:ralph-router:ipv4=172.30.0.21/30",
    "key": "filter",
    "to": "udp",
    "from": ""
   },
   {
    "node": "vnet:ralph-router:node=client3",
    "iface": "vnet:ralph-router:ipv4=172.30.0.18/30",
    "key": "filter",
    "to": "udp",
    "from": ""
   },
   {
    "node": "vnet:ralph-router:node=firewall2",
    "iface": "vnet:ralph-router:ipv4=172.30.0.73/30",
    "key": "rate",
    "to": 100,
    "from": 50
   },
   {
    "node": "vnet:ralph-router:node=client7",
    "iface": "vnet:ralph-router:ipv4=172.30.0.34/30",
    "key": "filter",
    "to": "tcp",
    "from": ""
   }
  ],
  "net_type": 2,
  "rev": 146
 },
 {
  "user": "728e9e46d639ccbdd66762f1c299a2a3",
  "revenue": "140.49889124999999",
  "cost_ratio": 106,
  "cost": 13850,
  "counters": {
   "state_changes": 4,
   "rate_changes": 4,
   "statedown": 4,
   "stateup": 0,
   "filter_tcp": 0,
   "rateup": 2,
   "all_changes": 12,
   "filter_udp": 4,
   "filter_changes": 4,
   "ratedown": 2
  },
  "_0_init": "2015-11-19T16:22:32.691Z",
  "time": 244,
  "changes": [
   {
    "node": "vnet:ralph-router:node=upstream-r1",
    "iface": "vnet:ralph-router:ipv4=172.30.0.70/30",
    "key": "filter",
    "to": "udp",
    "from": ""
   },
   {
    "node": "vnet:ralph-router:node=upstream-r1",
    "iface": "vnet:ralph-router:ipv4=172.30.0.77/30",
    "key": "state",
    "to": "down",
    "from": "up"
   },
   {
    "node": "vnet:ralph-router:node=west-r1",
    "iface": "vnet:ralph-router:ipv4=172.30.0.6/30",
    "key": "state",
    "to": "down",
    "from": "up"
   },
   {
    "node": "vnet:ralph-router:node=firewall1",
    "iface": "vnet:ralph-router:ipv4=172.30.0.69/30",
    "key": "filter",
    "to": "udp",
    "from": ""
   },
   {
    "node": "vnet:ralph-router:node=east-r1",
    "iface": "vnet:ralph-router:ipv4=172.30.0.82/30",
    "key": "rate",
    "to": 10,
    "from": 50
   },
   {
    "node": "vnet:ralph-router:node=east-r1",
    "iface": "vnet:ralph-router:ipv4=172.30.0.78/30",
    "key": "state",
    "to": "down",
    "from": "up"
   },
   {
    "node": "vnet:ralph-router:node=router1",
    "iface": "vnet:ralph-router:ipv4=172.30.0.65/30",
    "key": "filter",
    "to": "udp",
    "from": ""
   },
   {
    "node": "vnet:ralph-router:node=upstream-r2",
    "iface": "vnet:ralph-router:ipv4=172.30.0.81/30",
    "key": "rate",
    "to": 10,
    "from": 50
   },
   {
    "node": "vnet:ralph-router:node=upstream-r2",
    "iface": "vnet:ralph-router:ipv4=172.30.0.74/30",
    "key": "rate",
    "to": 75,
    "from": 50
   },
   {
    "node": "vnet:ralph-router:node=upstream-r2",
    "iface": "vnet:ralph-router:ipv4=172.30.0.5/30",
    "key": "state",
    "to": "down",
    "from": "up"
   },
   {
    "node": "vnet:ralph-router:node=firewall2",
    "iface": "vnet:ralph-router:ipv4=172.30.0.73/30",
    "key": "rate",
    "to": 75,
    "from": 50
   },
   {
    "node": "vnet:ralph-router:node=firewall2",
    "iface": "vnet:ralph-router:ipv4=172.30.0.66/30",
    "key": "filter",
    "to": "udp",
    "from": ""
   }
  ],
  "net_type": 2,
  "rev": 96
 },
 {
  "user": "ae936a28139a686085a9f9fe0b893675",
  "revenue": "222.34240400000002",
  "cost_ratio": 123,
  "cost": 16000,
  "counters": {
   "state_changes": 0,
   "rate_changes": 0,
   "statedown": 0,
   "stateup": 0,
   "filter_tcp": 0,
   "rateup": 0,
   "all_changes": 6,
   "filter_udp": 6,
   "filter_changes": 6,
   "ratedown": 0
  },
  "_0_init": "2015-11-16T18:46:44.840Z",
  "time": 196,
  "changes": [
   {
    "node": "vnet:ralph-router:node=firewall1",
    "iface": "vnet:ralph-router:ipv4=172.30.0.62/30",
    "key": "filter",
    "to": "udp",
    "from": ""
   },
   {
    "node": "vnet:ralph-router:node=east-r1",
    "iface": "vnet:ralph-router:ipv4=172.30.0.37/30",
    "key": "filter",
    "to": "udp",
    "from": ""
   },
   {
    "node": "vnet:ralph-router:node=router1",
    "iface": "vnet:ralph-router:ipv4=172.30.0.65/30",
    "key": "filter",
    "to": "udp",
    "from": ""
   },
   {
    "node": "vnet:ralph-router:node=router1",
    "iface": "vnet:ralph-router:ipv4=172.30.0.61/30",
    "key": "filter",
    "to": "udp",
    "from": ""
   },
   {
    "node": "vnet:ralph-router:node=client8",
    "iface": "vnet:ralph-router:ipv4=172.30.0.38/30",
    "key": "filter",
    "to": "udp",
    "from": ""
   },
   {
    "node": "vnet:ralph-router:node=firewall2",
    "iface": "vnet:ralph-router:ipv4=172.30.0.66/30",
    "key": "filter",
    "to": "udp",
    "from": ""
   }
  ],
  "net_type": 2,
  "rev": 153
 },
 {
  "_0_init": "2015-11-16T23:23:20.707Z",
  "revenue": "156.97172899999998",
  "cost_ratio": 100,
  "cost": 17100,
  "counters": {
   "state_changes": 2,
   "rate_changes": 2,
   "statedown": 2,
   "stateup": 0,
   "filter_tcp": 0,
   "rateup": 0,
   "all_changes": 6,
   "filter_udp": 2,
   "filter_changes": 2,
   "ratedown": 2
  },
  "user": "4032df9512fa55cc67f3bc56b9d7872a",
  "time": 474,
  "changes": [
   {
    "node": "vnet:ralph-router:node=westr1",
    "iface": "vnet:ralph-router:ipv4=172.30.0.114/30",
    "key": "filter",
    "to": "udp",
    "from": ""
   },
   {
    "node": "vnet:ralph-router:node=nspr2",
    "iface": "vnet:ralph-router:ipv4=172.30.0.17/30",
    "key": "rate",
    "to": 10,
    "from": 50
   },
   {
    "node": "vnet:ralph-router:node=custr1",
    "iface": "vnet:ralph-router:ipv4=172.30.0.21/30",
    "key": "state",
    "to": "down",
    "from": "up"
   },
   {
    "node": "vnet:ralph-router:node=eastr1",
    "iface": "vnet:ralph-router:ipv4=172.30.0.18/30",
    "key": "rate",
    "to": 10,
    "from": 50
   },
   {
    "node": "vnet:ralph-router:node=eastr1",
    "iface": "vnet:ralph-router:ipv4=172.30.0.22/30",
    "key": "state",
    "to": "down",
    "from": "up"
   },
   {
    "node": "vnet:ralph-router:node=nspr1",
    "iface": "vnet:ralph-router:ipv4=172.30.0.113/30",
    "key": "filter",
    "to": "udp",
    "from": ""
   }
  ],
  "net_type": 1,
  "rev": 67
 },
 {
  "user": "50af24ff94d5f965a68337d8c1707e2c",
  "revenue": "212.919187",
  "cost_ratio": 112,
  "cost": 19100,
  "counters": {
   "state_changes": 2,
   "rate_changes": 8,
   "statedown": 2,
   "stateup": 0,
   "filter_tcp": 0,
   "rateup": 6,
   "all_changes": 14,
   "filter_udp": 4,
   "filter_changes": 4,
   "ratedown": 2
  },
  "_0_init": "2015-11-17T00:08:39.617Z",
  "time": 334,
  "changes": [
   {
    "node": "vnet:ralph-router:node=westr1",
    "iface": "vnet:ralph-router:ipv4=172.30.0.114/30",
    "key": "rate",
    "to": 10,
    "from": 50
   },
   {
    "node": "vnet:ralph-router:node=westr2",
    "iface": "vnet:ralph-router:ipv4=172.30.0.13/30",
    "key": "filter",
    "to": "udp",
    "from": ""
   },
   {
    "node": "vnet:ralph-router:node=nspr2",
    "iface": "vnet:ralph-router:ipv4=172.30.0.17/30",
    "key": "rate",
    "to": 100,
    "from": 50
   },
   {
    "node": "vnet:ralph-router:node=server2",
    "iface": "vnet:ralph-router:ipv4=172.30.0.46/30",
    "key": "rate",
    "to": 100,
    "from": 75
   },
   {
    "node": "vnet:ralph-router:node=westr3",
    "iface": "vnet:ralph-router:ipv4=172.30.0.14/30",
    "key": "filter",
    "to": "udp",
    "from": ""
   },
   {
    "node": "vnet:ralph-router:node=custr2",
    "iface": "vnet:ralph-router:ipv4=172.30.0.45/30",
    "key": "rate",
    "to": 100,
    "from": 75
   },
   {
    "node": "vnet:ralph-router:node=eastr3",
    "iface": "vnet:ralph-router:ipv4=172.30.0.34/30",
    "key": "filter",
    "to": "udp",
    "from": ""
   },
   {
    "node": "vnet:ralph-router:node=server1",
    "iface": "vnet:ralph-router:ipv4=172.30.0.2/30",
    "key": "rate",
    "to": 100,
    "from": 75
   },
   {
    "node": "vnet:ralph-router:node=nspr4",
    "iface": "vnet:ralph-router:ipv4=172.30.0.33/30",
    "key": "filter",
    "to": "udp",
    "from": ""
   },
   {
    "node": "vnet:ralph-router:node=custr1",
    "iface": "vnet:ralph-router:ipv4=172.30.0.21/30",
    "key": "state",
    "to": "down",
    "from": "up"
   },
   {
    "node": "vnet:ralph-router:node=custr1",
    "iface": "vnet:ralph-router:ipv4=172.30.0.1/30",
    "key": "rate",
    "to": 100,
    "from": 75
   },
   {
    "node": "vnet:ralph-router:node=eastr1",
    "iface": "vnet:ralph-router:ipv4=172.30.0.18/30",
    "key": "rate",
    "to": 100,
    "from": 50
   },
   {
    "node": "vnet:ralph-router:node=eastr1",
    "iface": "vnet:ralph-router:ipv4=172.30.0.22/30",
    "key": "state",
    "to": "down",
    "from": "up"
   },
   {
    "node": "vnet:ralph-router:node=nspr1",
    "iface": "vnet:ralph-router:ipv4=172.30.0.113/30",
    "key": "rate",
    "to": 10,
    "from": 50
   }
  ],
  "net_type": 1,
  "rev": 91
 },
 {
  "user": "98ce0c7b0e11793d4bfd2c6d1c11b25a",
  "revenue": "127.46932775",
  "cost_ratio": 123,
  "cost": 21000,
  "counters": {
   "state_changes": 2,
   "rate_changes": 2,
   "statedown": 2,
   "stateup": 0,
   "filter_tcp": 0,
   "rateup": 2,
   "all_changes": 12,
   "filter_udp": 8,
   "filter_changes": 8,
   "ratedown": 0
  },
  "_0_init": "2015-11-17T00:36:36.705Z",
  "time": 290,
  "changes": [
   {
    "node": "vnet:ralph-router:node=westr1",
    "iface": "vnet:ralph-router:ipv4=172.30.0.10/30",
    "key": "rate",
    "to": 100,
    "from": 50
   },
   {
    "node": "vnet:ralph-router:node=nspr3",
    "iface": "vnet:ralph-router:ipv4=172.30.0.5/30",
    "key": "state",
    "to": "down",
    "from": "up"
   },
   {
    "node": "vnet:ralph-router:node=westr2",
    "iface": "vnet:ralph-router:ipv4=172.30.0.9/30",
    "key": "rate",
    "to": 100,
    "from": 50
   },
   {
    "node": "vnet:ralph-router:node=westr2",
    "iface": "vnet:ralph-router:ipv4=172.30.0.6/30",
    "key": "state",
    "to": "down",
    "from": "up"
   },
   {
    "node": "vnet:ralph-router:node=client5",
    "iface": "vnet:ralph-router:ipv4=172.30.0.58/30",
    "key": "filter",
    "to": "udp",
    "from": ""
   },
   {
    "node": "vnet:ralph-router:node=westr3",
    "iface": "vnet:ralph-router:ipv4=172.30.0.57/30",
    "key": "filter",
    "to": "udp",
    "from": ""
   },
   {
    "node": "vnet:ralph-router:node=client9",
    "iface": "vnet:ralph-router:ipv4=172.30.0.74/30",
    "key": "filter",
    "to": "udp",
    "from": ""
   },
   {
    "node": "vnet:ralph-router:node=client6",
    "iface": "vnet:ralph-router:ipv4=172.30.0.62/30",
    "key": "filter",
    "to": "udp",
    "from": ""
   },
   {
    "node": "vnet:ralph-router:node=eastr3",
    "iface": "vnet:ralph-router:ipv4=172.30.0.73/30",
    "key": "filter",
    "to": "udp",
    "from": ""
   },
   {
    "node": "vnet:ralph-router:node=custr1",
    "iface": "vnet:ralph-router:ipv4=172.30.0.98/30",
    "key": "filter",
    "to": "udp",
    "from": ""
   },
   {
    "node": "vnet:ralph-router:node=eastr1",
    "iface": "vnet:ralph-router:ipv4=172.30.0.61/30",
    "key": "filter",
    "to": "udp",
    "from": ""
   },
   {
    "node": "vnet:ralph-router:node=nspr1",
    "iface": "vnet:ralph-router:ipv4=172.30.0.97/30",
    "key": "filter",
    "to": "udp",
    "from": ""
   }
  ],
  "net_type": 1,
  "rev": 54
 },
 {
  "_0_init": "2015-11-17T01:49:05.324Z",
  "revenue": "182.96139862500002",
  "cost_ratio": 114,
  "cost": 19500,
  "counters": {
   "state_changes": 0,
   "rate_changes": 10,
   "statedown": 0,
   "stateup": 0,
   "filter_tcp": 0,
   "rateup": 10,
   "all_changes": 10,
   "filter_udp": 0,
   "filter_changes": 0,
   "ratedown": 0
  },
  "user": "f24c277a1ce5f56a54d3edf0e11d3ff6",
  "time": 336,
  "changes": [
   {
    "node": "vnet:ralph-router:node=client4",
    "iface": "vnet:ralph-router:ipv4=172.30.0.54/30",
    "key": "rate",
    "to": 100,
    "from": 50
   },
   {
    "node": "vnet:ralph-router:node=nspr3",
    "iface": "vnet:ralph-router:ipv4=172.30.0.5/30",
    "key": "rate",
    "to": 100,
    "from": 50
   },
   {
    "node": "vnet:ralph-router:node=nspr3",
    "iface": "vnet:ralph-router:ipv4=172.30.0.89/30",
    "key": "rate",
    "to": 100,
    "from": 50
   },
   {
    "node": "vnet:ralph-router:node=westr2",
    "iface": "vnet:ralph-router:ipv4=172.30.0.6/30",
    "key": "rate",
    "to": 100,
    "from": 50
   },
   {
    "node": "vnet:ralph-router:node=westr3",
    "iface": "vnet:ralph-router:ipv4=172.30.0.53/30",
    "key": "rate",
    "to": 100,
    "from": 50
   },
   {
    "node": "vnet:ralph-router:node=custr2",
    "iface": "vnet:ralph-router:ipv4=172.30.0.90/30",
    "key": "rate",
    "to": 100,
    "from": 50
   },
   {
    "node": "vnet:ralph-router:node=eastr3",
    "iface": "vnet:ralph-router:ipv4=172.30.0.29/30",
    "key": "rate",
    "to": 100,
    "from": 50
   },
   {
    "node": "vnet:ralph-router:node=client8",
    "iface": "vnet:ralph-router:ipv4=172.30.0.70/30",
    "key": "rate",
    "to": 100,
    "from": 50
   },
   {
    "node": "vnet:ralph-router:node=eastr2",
    "iface": "vnet:ralph-router:ipv4=172.30.0.30/30",
    "key": "rate",
    "to": 100,
    "from": 50
   },
   {
    "node": "vnet:ralph-router:node=eastr2",
    "iface": "vnet:ralph-router:ipv4=172.30.0.69/30",
    "key": "rate",
    "to": 100,
    "from": 50
   }
  ],
  "net_type": 1,
  "rev": 78
 },
 {
  "_0_init": "2015-11-17T18:23:22.424Z",
  "revenue": "150.311962",
  "cost_ratio": 103,
  "cost": 17600,
  "counters": {
   "state_changes": 4,
   "rate_changes": 4,
   "statedown": 4,
   "stateup": 0,
   "filter_tcp": 0,
   "rateup": 2,
   "all_changes": 11,
   "filter_udp": 3,
   "filter_changes": 3,
   "ratedown": 2
  },
  "user": "31ded170920168c5d52484e98b023f1c",
  "time": 244,
  "changes": [
   {
    "node": "vnet:ralph-router:node=nsps1",
    "iface": "vnet:ralph-router:ipv4=172.20.13.6/24",
    "key": "rate",
    "to": 10,
    "from": 50
   },
   {
    "node": "vnet:ralph-router:node=nsps1",
    "iface": "vnet:ralph-router:ipv4=172.20.13.2/24",
    "key": "state",
    "to": "down",
    "from": "up"
   },
   {
    "node": "vnet:ralph-router:node=nspr3",
    "iface": "vnet:ralph-router:ipv4=172.20.13.5/24",
    "key": "rate",
    "to": 10,
    "from": 50
   },
   {
    "node": "vnet:ralph-router:node=nspr2",
    "iface": "vnet:ralph-router:ipv4=172.30.0.17/30",
    "key": "filter",
    "to": "udp",
    "from": ""
   },
   {
    "node": "vnet:ralph-router:node=eastr3",
    "iface": "vnet:ralph-router:ipv4=172.30.0.73/30",
    "key": "filter",
    "to": "udp",
    "from": ""
   },
   {
    "node": "vnet:ralph-router:node=custr1",
    "iface": "vnet:ralph-router:ipv4=172.30.0.21/30",
    "key": "state",
    "to": "down",
    "from": "up"
   },
   {
    "node": "vnet:ralph-router:node=custr1",
    "iface": "vnet:ralph-router:ipv4=172.30.0.98/30",
    "key": "rate",
    "to": 100,
    "from": 50
   },
   {
    "node": "vnet:ralph-router:node=eastr1",
    "iface": "vnet:ralph-router:ipv4=172.30.0.18/30",
    "key": "filter",
    "to": "udp",
    "from": ""
   },
   {
    "node": "vnet:ralph-router:node=eastr1",
    "iface": "vnet:ralph-router:ipv4=172.30.0.22/30",
    "key": "state",
    "to": "down",
    "from": "up"
   },
   {
    "node": "vnet:ralph-router:node=nspr1",
    "iface": "vnet:ralph-router:ipv4=172.30.0.97/30",
    "key": "rate",
    "to": 100,
    "from": 50
   },
   {
    "node": "vnet:ralph-router:node=nspr1",
    "iface": "vnet:ralph-router:ipv4=172.20.13.1/24",
    "key": "state",
    "to": "down",
    "from": "up"
   }
  ],
  "net_type": 1,
  "rev": 64
 },
 {
  "user": "7c80a70a81cbb6c95700af4e923150f2",
  "revenue": "199.28716375000002",
  "cost_ratio": 129,
  "cost": 22000,
  "counters": {
   "state_changes": 0,
   "rate_changes": 10,
   "statedown": 0,
   "stateup": 0,
   "filter_tcp": 0,
   "rateup": 10,
   "all_changes": 16,
   "filter_udp": 6,
   "filter_changes": 6,
   "ratedown": 0
  },
  "_0_init": "2015-11-17T18:32:41.710Z",
  "time": 232,
  "changes": [
   {
    "node": "vnet:ralph-router:node=westr1",
    "iface": "vnet:ralph-router:ipv4=172.30.0.114/30",
    "key": "rate",
    "to": 100,
    "from": 50
   },
   {
    "node": "vnet:ralph-router:node=westr2",
    "iface": "vnet:ralph-router:ipv4=172.30.0.13/30",
    "key": "filter",
    "to": "udp",
    "from": ""
   },
   {
    "node": "vnet:ralph-router:node=server2",
    "iface": "vnet:ralph-router:ipv4=172.30.0.46/30",
    "key": "rate",
    "to": 100,
    "from": 75
   },
   {
    "node": "vnet:ralph-router:node=westr3",
    "iface": "vnet:ralph-router:ipv4=172.30.0.14/30",
    "key": "filter",
    "to": "udp",
    "from": ""
   },
   {
    "node": "vnet:ralph-router:node=client9",
    "iface": "vnet:ralph-router:ipv4=172.30.0.74/30",
    "key": "rate",
    "to": 100,
    "from": 50
   },
   {
    "node": "vnet:ralph-router:node=custr2",
    "iface": "vnet:ralph-router:ipv4=172.30.0.45/30",
    "key": "rate",
    "to": 100,
    "from": 75
   },
   {
    "node": "vnet:ralph-router:node=eastr3",
    "iface": "vnet:ralph-router:ipv4=172.30.0.73/30",
    "key": "rate",
    "to": 100,
    "from": 50
   },
   {
    "node": "vnet:ralph-router:node=server1",
    "iface": "vnet:ralph-router:ipv4=172.30.0.2/30",
    "key": "rate",
    "to": 100,
    "from": 75
   },
   {
    "node": "vnet:ralph-router:node=eastr2",
    "iface": "vnet:ralph-router:ipv4=172.30.0.26/30",
    "key": "rate",
    "to": 100,
    "from": 50
   },
   {
    "node": "vnet:ralph-router:node=custr1",
    "iface": "vnet:ralph-router:ipv4=172.30.0.21/30",
    "key": "filter",
    "to": "udp",
    "from": ""
   },
   {
    "node": "vnet:ralph-router:node=custr1",
    "iface": "vnet:ralph-router:ipv4=172.30.0.1/30",
    "key": "rate",
    "to": 100,
    "from": 75
   },
   {
    "node": "vnet:ralph-router:node=custr1",
    "iface": "vnet:ralph-router:ipv4=172.30.0.98/30",
    "key": "filter",
    "to": "udp",
    "from": ""
   },
   {
    "node": "vnet:ralph-router:node=eastr1",
    "iface": "vnet:ralph-router:ipv4=172.30.0.25/30",
    "key": "rate",
    "to": 100,
    "from": 50
   },
   {
    "node": "vnet:ralph-router:node=eastr1",
    "iface": "vnet:ralph-router:ipv4=172.30.0.22/30",
    "key": "filter",
    "to": "udp",
    "from": ""
   },
   {
    "node": "vnet:ralph-router:node=nspr1",
    "iface": "vnet:ralph-router:ipv4=172.30.0.113/30",
    "key": "rate",
    "to": 100,
    "from": 50
   },
   {
    "node": "vnet:ralph-router:node=nspr1",
    "iface": "vnet:ralph-router:ipv4=172.30.0.97/30",
    "key": "filter",
    "to": "udp",
    "from": ""
   }
  ],
  "net_type": 1,
  "rev": 85
 },
 {
  "_0_init": "2015-11-17T18:40:26.123Z",
  "revenue": "63.14220125000001",
  "cost_ratio": 94,
  "cost": 16050,
  "counters": {
   "state_changes": 0,
   "rate_changes": 8,
   "statedown": 0,
   "stateup": 0,
   "filter_tcp": 0,
   "rateup": 2,
   "all_changes": 8,
   "filter_udp": 0,
   "filter_changes": 0,
   "ratedown": 6
  },
  "user": "8c2dc3698d0a59925bcc45cd6d33c729",
  "time": 125,
  "changes": [
   {
    "node": "vnet:ralph-router:node=westr1",
    "iface": "vnet:ralph-router:ipv4=172.30.0.114/30",
    "key": "rate",
    "to": 10,
    "from": 50
   },
   {
    "node": "vnet:ralph-router:node=nsps1",
    "iface": "vnet:ralph-router:ipv4=172.20.13.6/24",
    "key": "rate",
    "to": 10,
    "from": 50
   },
   {
    "node": "vnet:ralph-router:node=nspr3",
    "iface": "vnet:ralph-router:ipv4=172.20.13.5/24",
    "key": "rate",
    "to": 10,
    "from": 50
   },
   {
    "node": "vnet:ralph-router:node=eastr3",
    "iface": "vnet:ralph-router:ipv4=172.30.0.29/30",
    "key": "rate",
    "to": 10,
    "from": 50
   },
   {
    "node": "vnet:ralph-router:node=eastr2",
    "iface": "vnet:ralph-router:ipv4=172.30.0.30/30",
    "key": "rate",
    "to": 10,
    "from": 50
   },
   {
    "node": "vnet:ralph-router:node=custr1",
    "iface": "vnet:ralph-router:ipv4=172.30.0.21/30",
    "key": "rate",
    "to": 75,
    "from": 50
   },
   {
    "node": "vnet:ralph-router:node=eastr1",
    "iface": "vnet:ralph-router:ipv4=172.30.0.22/30",
    "key": "rate",
    "to": 75,
    "from": 50
   },
   {
    "node": "vnet:ralph-router:node=nspr1",
    "iface": "vnet:ralph-router:ipv4=172.30.0.113/30",
    "key": "rate",
    "to": 10,
    "from": 50
   }
  ],
  "net_type": 1,
  "rev": 27
 },
 {
  "_0_init": "2015-11-17T19:16:25.083Z",
  "revenue": "208.35622125",
  "cost_ratio": 138,
  "cost": 23500,
  "counters": {
   "state_changes": 0,
   "rate_changes": 4,
   "statedown": 0,
   "stateup": 0,
   "filter_tcp": 0,
   "rateup": 4,
   "all_changes": 16,
   "filter_udp": 12,
   "filter_changes": 12,
   "ratedown": 0
  },
  "user": "07f1ebf085ed21626ed7da48d40cb291",
  "time": 317,
  "changes": [
   {
    "node": "vnet:ralph-router:node=client1",
    "iface": "vnet:ralph-router:ipv4=172.30.0.38/30",
    "key": "filter",
    "to": "udp",
    "from": ""
   },
   {
    "node": "vnet:ralph-router:node=westr1",
    "iface": "vnet:ralph-router:ipv4=172.30.0.37/30",
    "key": "filter",
    "to": "udp",
    "from": ""
   },
   {
    "node": "vnet:ralph-router:node=nspr3",
    "iface": "vnet:ralph-router:ipv4=172.30.0.5/30",
    "key": "rate",
    "to": 75,
    "from": 50
   },
   {
    "node": "vnet:ralph-router:node=nspr3",
    "iface": "vnet:ralph-router:ipv4=172.30.0.89/30",
    "key": "rate",
    "to": 75,
    "from": 50
   },
   {
    "node": "vnet:ralph-router:node=westr2",
    "iface": "vnet:ralph-router:ipv4=172.30.0.6/30",
    "key": "rate",
    "to": 75,
    "from": 50
   },
   {
    "node": "vnet:ralph-router:node=nspr2",
    "iface": "vnet:ralph-router:ipv4=172.30.0.81/30",
    "key": "filter",
    "to": "udp",
    "from": ""
   },
   {
    "node": "vnet:ralph-router:node=client5",
    "iface": "vnet:ralph-router:ipv4=172.30.0.58/30",
    "key": "filter",
    "to": "udp",
    "from": ""
   },
   {
    "node": "vnet:ralph-router:node=westr3",
    "iface": "vnet:ralph-router:ipv4=172.30.0.57/30",
    "key": "filter",
    "to": "udp",
    "from": ""
   },
   {
    "node": "vnet:ralph-router:node=client9",
    "iface": "vnet:ralph-router:ipv4=172.30.0.74/30",
    "key": "filter",
    "to": "udp",
    "from": ""
   },
   {
    "node": "vnet:ralph-router:node=custr2",
    "iface": "vnet:ralph-router:ipv4=172.30.0.90/30",
    "key": "rate",
    "to": 75,
    "from": 50
   },
   {
    "node": "vnet:ralph-router:node=client6",
    "iface": "vnet:ralph-router:ipv4=172.30.0.62/30",
    "key": "filter",
    "to": "udp",
    "from": ""
   },
   {
    "node": "vnet:ralph-router:node=eastr3",
    "iface": "vnet:ralph-router:ipv4=172.30.0.73/30",
    "key": "filter",
    "to": "udp",
    "from": ""
   },
   {
    "node": "vnet:ralph-router:node=custr1",
    "iface": "vnet:ralph-router:ipv4=172.30.0.98/30",
    "key": "filter",
    "to": "udp",
    "from": ""
   },
   {
    "node": "vnet:ralph-router:node=eastr1",
    "iface": "vnet:ralph-router:ipv4=172.30.0.61/30",
    "key": "filter",
    "to": "udp",
    "from": ""
   },
   {
    "node": "vnet:ralph-router:node=nspr1",
    "iface": "vnet:ralph-router:ipv4=172.30.0.97/30",
    "key": "filter",
    "to": "udp",
    "from": ""
   },
   {
    "node": "vnet:ralph-router:node=nspr1",
    "iface": "vnet:ralph-router:ipv4=172.30.0.82/30",
    "key": "filter",
    "to": "udp",
    "from": ""
   }
  ],
  "net_type": 1,
  "rev": 89
 },
 {
  "user": "6e2382a527d6266dfbc0ca4a5e116d21",
  "revenue": "78.445605875",
  "cost_ratio": 103,
  "cost": 13500,
  "counters": {
   "state_changes": 2,
   "rate_changes": 0,
   "statedown": 2,
   "stateup": 0,
   "filter_tcp": 0,
   "rateup": 0,
   "all_changes": 4,
   "filter_udp": 2,
   "filter_changes": 2,
   "ratedown": 0
  },
  "_0_init": "2015-11-17T19:26:55.185Z",
  "time": 71,
  "rev": 54,
  "net_type": 2,
  "changes": [
   {
    "node": "vnet:ralph-router:node=client4",
    "iface": "vnet:ralph-router:ipv4=172.30.0.22/30",
    "key": "filter",
    "to": "udp",
    "from": ""
   },
   {
    "node": "vnet:ralph-router:node=upstream-r2",
    "iface": "vnet:ralph-router:ipv4=172.30.0.25/30",
    "key": "state",
    "to": "down",
    "from": "up"
   },
   {
    "node": "vnet:ralph-router:node=upstream-r2",
    "iface": "vnet:ralph-router:ipv4=172.30.0.21/30",
    "key": "filter",
    "to": "udp",
    "from": ""
   },
   {
    "node": "vnet:ralph-router:node=client5",
    "iface": "vnet:ralph-router:ipv4=172.30.0.26/30",
    "key": "state",
    "to": "down",
    "from": "up"
   }
  ]
 },
 {
  "_0_init": "2015-11-17T19:28:49.085Z",
  "revenue": "223.55096812499994",
  "cost_ratio": 127,
  "cost": 21700,
  "counters": {
   "state_changes": 0,
   "rate_changes": 6,
   "statedown": 0,
   "stateup": 0,
   "filter_tcp": 0,
   "rateup": 2,
   "all_changes": 16,
   "filter_udp": 10,
   "filter_changes": 10,
   "ratedown": 4
  },
  "user": "9f9c89c240b41a35b70d5d81a70f8ac8",
  "time": 244,
  "changes": [
   {
    "node": "vnet:ralph-router:node=client1",
    "iface": "vnet:ralph-router:ipv4=172.30.0.38/30",
    "key": "rate",
    "to": 10,
    "from": 50
   },
   {
    "node": "vnet:ralph-router:node=westr1",
    "iface": "vnet:ralph-router:ipv4=172.30.0.114/30",
    "key": "filter",
    "to": "udp",
    "from": ""
   },
   {
    "node": "vnet:ralph-router:node=westr1",
    "iface": "vnet:ralph-router:ipv4=172.30.0.37/30",
    "key": "rate",
    "to": 10,
    "from": 50
   },
   {
    "node": "vnet:ralph-router:node=nsps1",
    "iface": "vnet:ralph-router:ipv4=172.20.13.2/24",
    "key": "filter",
    "to": "udp",
    "from": ""
   },
   {
    "node": "vnet:ralph-router:node=westr2",
    "iface": "vnet:ralph-router:ipv4=172.30.0.13/30",
    "key": "rate",
    "to": 100,
    "from": 50
   },
   {
    "node": "vnet:ralph-router:node=client5",
    "iface": "vnet:ralph-router:ipv4=172.30.0.58/30",
    "key": "rate",
    "to": 10,
    "from": 50
   },
   {
    "node": "vnet:ralph-router:node=westr3",
    "iface": "vnet:ralph-router:ipv4=172.30.0.14/30",
    "key": "rate",
    "to": 100,
    "from": 50
   },
   {
    "node": "vnet:ralph-router:node=westr3",
    "iface": "vnet:ralph-router:ipv4=172.30.0.57/30",
    "key": "rate",
    "to": 10,
    "from": 50
   },
   {
    "node": "vnet:ralph-router:node=client9",
    "iface": "vnet:ralph-router:ipv4=172.30.0.74/30",
    "key": "filter",
    "to": "udp",
    "from": ""
   },
   {
    "node": "vnet:ralph-router:node=eastr3",
    "iface": "vnet:ralph-router:ipv4=172.30.0.73/30",
    "key": "filter",
    "to": "udp",
    "from": ""
   },
   {
    "node": "vnet:ralph-router:node=custr1",
    "iface": "vnet:ralph-router:ipv4=172.30.0.21/30",
    "key": "filter",
    "to": "udp",
    "from": ""
   },
   {
    "node": "vnet:ralph-router:node=custr1",
    "iface": "vnet:ralph-router:ipv4=172.30.0.98/30",
    "key": "filter",
    "to": "udp",
    "from": ""
   },
   {
    "node": "vnet:ralph-router:node=eastr1",
    "iface": "vnet:ralph-router:ipv4=172.30.0.22/30",
    "key": "filter",
    "to": "udp",
    "from": ""
   },
   {
    "node": "vnet:ralph-router:node=nspr1",
    "iface": "vnet:ralph-router:ipv4=172.30.0.113/30",
    "key": "filter",
    "to": "udp",
    "from": ""
   },
   {
    "node": "vnet:ralph-router:node=nspr1",
    "iface": "vnet:ralph-router:ipv4=172.30.0.97/30",
    "key": "filter",
    "to": "udp",
    "from": ""
   },
   {
    "node": "vnet:ralph-router:node=nspr1",
    "iface": "vnet:ralph-router:ipv4=172.20.13.1/24",
    "key": "filter",
    "to": "udp",
    "from": ""
   }
  ],
  "net_type": 1,
  "rev": 96
 },
 {
  "_0_init": "2015-11-17T20:19:25.255Z",
  "revenue": "227.62580524999998",
  "cost_ratio": 126,
  "cost": 21500,
  "counters": {
   "state_changes": 2,
   "rate_changes": 6,
   "statedown": 2,
   "stateup": 0,
   "filter_tcp": 0,
   "rateup": 6,
   "all_changes": 16,
   "filter_udp": 8,
   "filter_changes": 8,
   "ratedown": 0
  },
  "user": "f448b6209b4ba236ea34e808c13eff94",
  "time": 119,
  "changes": [
   {
    "node": "vnet:ralph-router:node=client1",
    "iface": "vnet:ralph-router:ipv4=172.30.0.38/30",
    "key": "filter",
    "to": "udp",
    "from": ""
   },
   {
    "node": "vnet:ralph-router:node=westr1",
    "iface": "vnet:ralph-router:ipv4=172.30.0.114/30",
    "key": "state",
    "to": "down",
    "from": "up"
   },
   {
    "node": "vnet:ralph-router:node=westr1",
    "iface": "vnet:ralph-router:ipv4=172.30.0.37/30",
    "key": "filter",
    "to": "udp",
    "from": ""
   },
   {
    "node": "vnet:ralph-router:node=nspr3",
    "iface": "vnet:ralph-router:ipv4=172.30.0.5/30",
    "key": "rate",
    "to": 75,
    "from": 50
   },
   {
    "node": "vnet:ralph-router:node=westr2",
    "iface": "vnet:ralph-router:ipv4=172.30.0.6/30",
    "key": "rate",
    "to": 75,
    "from": 50
   },
   {
    "node": "vnet:ralph-router:node=client5",
    "iface": "vnet:ralph-router:ipv4=172.30.0.58/30",
    "key": "filter",
    "to": "udp",
    "from": ""
   },
   {
    "node": "vnet:ralph-router:node=westr3",
    "iface": "vnet:ralph-router:ipv4=172.30.0.57/30",
    "key": "filter",
    "to": "udp",
    "from": ""
   },
   {
    "node": "vnet:ralph-router:node=client9",
    "iface": "vnet:ralph-router:ipv4=172.30.0.74/30",
    "key": "filter",
    "to": "udp",
    "from": ""
   },
   {
    "node": "vnet:ralph-router:node=client6",
    "iface": "vnet:ralph-router:ipv4=172.30.0.62/30",
    "key": "filter",
    "to": "udp",
    "from": ""
   },
   {
    "node": "vnet:ralph-router:node=eastr3",
    "iface": "vnet:ralph-router:ipv4=172.30.0.73/30",
    "key": "filter",
    "to": "udp",
    "from": ""
   },
   {
    "node": "vnet:ralph-router:node=server1",
    "iface": "vnet:ralph-router:ipv4=172.30.0.2/30",
    "key": "rate",
    "to": 100,
    "from": 75
   },
   {
    "node": "vnet:ralph-router:node=custr1",
    "iface": "vnet:ralph-router:ipv4=172.30.0.21/30",
    "key": "rate",
    "to": 100,
    "from": 50
   },
   {
    "node": "vnet:ralph-router:node=custr1",
    "iface": "vnet:ralph-router:ipv4=172.30.0.1/30",
    "key": "rate",
    "to": 100,
    "from": 75
   },
   {
    "node": "vnet:ralph-router:node=eastr1",
    "iface": "vnet:ralph-router:ipv4=172.30.0.22/30",
    "key": "rate",
    "to": 100,
    "from": 50
   },
   {
    "node": "vnet:ralph-router:node=eastr1",
    "iface": "vnet:ralph-router:ipv4=172.30.0.61/30",
    "key": "filter",
    "to": "udp",
    "from": ""
   },
   {
    "node": "vnet:ralph-router:node=nspr1",
    "iface": "vnet:ralph-router:ipv4=172.30.0.113/30",
    "key": "state",
    "to": "down",
    "from": "up"
   }
  ],
  "net_type": 1,
  "rev": 98
 },
 {
  "_0_init": "2015-11-17T20:22:21.644Z",
  "revenue": "224.156344",
  "cost_ratio": 133,
  "cost": 22750,
  "counters": {
   "state_changes": 0,
   "rate_changes": 8,
   "statedown": 0,
   "stateup": 0,
   "filter_tcp": 0,
   "rateup": 8,
   "all_changes": 16,
   "filter_udp": 8,
   "filter_changes": 8,
   "ratedown": 0
  },
  "user": "1fff4a9672ea9ed232e70703a9c45070",
  "time": 54,
  "changes": [
   {
    "node": "vnet:ralph-router:node=client1",
    "iface": "vnet:ralph-router:ipv4=172.30.0.38/30",
    "key": "filter",
    "to": "udp",
    "from": ""
   },
   {
    "node": "vnet:ralph-router:node=westr1",
    "iface": "vnet:ralph-router:ipv4=172.30.0.37/30",
    "key": "filter",
    "to": "udp",
    "from": ""
   },
   {
    "node": "vnet:ralph-router:node=nspr3",
    "iface": "vnet:ralph-router:ipv4=172.30.0.5/30",
    "key": "rate",
    "to": 100,
    "from": 50
   },
   {
    "node": "vnet:ralph-router:node=nspr3",
    "iface": "vnet:ralph-router:ipv4=172.30.0.89/30",
    "key": "rate",
    "to": 100,
    "from": 50
   },
   {
    "node": "vnet:ralph-router:node=westr2",
    "iface": "vnet:ralph-router:ipv4=172.30.0.6/30",
    "key": "rate",
    "to": 100,
    "from": 50
   },
   {
    "node": "vnet:ralph-router:node=server2",
    "iface": "vnet:ralph-router:ipv4=172.30.0.46/30",
    "key": "rate",
    "to": 100,
    "from": 75
   },
   {
    "node": "vnet:ralph-router:node=client5",
    "iface": "vnet:ralph-router:ipv4=172.30.0.58/30",
    "key": "filter",
    "to": "udp",
    "from": ""
   },
   {
    "node": "vnet:ralph-router:node=westr3",
    "iface": "vnet:ralph-router:ipv4=172.30.0.57/30",
    "key": "filter",
    "to": "udp",
    "from": ""
   },
   {
    "node": "vnet:ralph-router:node=client9",
    "iface": "vnet:ralph-router:ipv4=172.30.0.74/30",
    "key": "filter",
    "to": "udp",
    "from": ""
   },
   {
    "node": "vnet:ralph-router:node=custr2",
    "iface": "vnet:ralph-router:ipv4=172.30.0.45/30",
    "key": "rate",
    "to": 100,
    "from": 75
   },
   {
    "node": "vnet:ralph-router:node=custr2",
    "iface": "vnet:ralph-router:ipv4=172.30.0.90/30",
    "key": "rate",
    "to": 100,
    "from": 50
   },
   {
    "node": "vnet:ralph-router:node=client6",
    "iface": "vnet:ralph-router:ipv4=172.30.0.62/30",
    "key": "filter",
    "to": "udp",
    "from": ""
   },
   {
    "node": "vnet:ralph-router:node=eastr3",
    "iface": "vnet:ralph-router:ipv4=172.30.0.73/30",
    "key": "filter",
    "to": "udp",
    "from": ""
   },
   {
    "node": "vnet:ralph-router:node=custr1",
    "iface": "vnet:ralph-router:ipv4=172.30.0.21/30",
    "key": "rate",
    "to": 100,
    "from": 50
   },
   {
    "node": "vnet:ralph-router:node=eastr1",
    "iface": "vnet:ralph-router:ipv4=172.30.0.22/30",
    "key": "rate",
    "to": 100,
    "from": 50
   },
   {
    "node": "vnet:ralph-router:node=eastr1",
    "iface": "vnet:ralph-router:ipv4=172.30.0.61/30",
    "key": "filter",
    "to": "udp",
    "from": ""
   }
  ],
  "net_type": 1,
  "rev": 96
 },
 {
  "user": "92c14e0ba8d4aff516696f719cfc46ae",
  "revenue": "119.78959062499999",
  "cost_ratio": 126,
  "cost": 21500,
  "counters": {
   "state_changes": 0,
   "rate_changes": 10,
   "statedown": 0,
   "stateup": 0,
   "filter_tcp": 0,
   "rateup": 10,
   "all_changes": 14,
   "filter_udp": 4,
   "filter_changes": 4,
   "ratedown": 0
  },
  "_0_init": "2015-11-17T20:36:09.027Z",
  "time": 211,
  "rev": 51,
  "net_type": 1,
  "changes": [
   {
    "node": "vnet:ralph-router:node=client1",
    "iface": "vnet:ralph-router:ipv4=172.30.0.38/30",
    "key": "filter",
    "to": "udp",
    "from": ""
   },
   {
    "node": "vnet:ralph-router:node=westr1",
    "iface": "vnet:ralph-router:ipv4=172.30.0.37/30",
    "key": "filter",
    "to": "udp",
    "from": ""
   },
   {
    "node": "vnet:ralph-router:node=nsps1",
    "iface": "vnet:ralph-router:ipv4=172.20.13.2/24",
    "key": "rate",
    "to": 100,
    "from": 50
   },
   {
    "node": "vnet:ralph-router:node=westr2",
    "iface": "vnet:ralph-router:ipv4=172.30.0.49/30",
    "key": "rate",
    "to": 100,
    "from": 50
   },
   {
    "node": "vnet:ralph-router:node=westr2",
    "iface": "vnet:ralph-router:ipv4=172.30.0.13/30",
    "key": "rate",
    "to": 100,
    "from": 50
   },
   {
    "node": "vnet:ralph-router:node=westr2",
    "iface": "vnet:ralph-router:ipv4=172.30.0.41/30",
    "key": "rate",
    "to": 100,
    "from": 50
   },
   {
    "node": "vnet:ralph-router:node=westr3",
    "iface": "vnet:ralph-router:ipv4=172.30.0.14/30",
    "key": "rate",
    "to": 100,
    "from": 50
   },
   {
    "node": "vnet:ralph-router:node=client6",
    "iface": "vnet:ralph-router:ipv4=172.30.0.62/30",
    "key": "filter",
    "to": "udp",
    "from": ""
   },
   {
    "node": "vnet:ralph-router:node=eastr3",
    "iface": "vnet:ralph-router:ipv4=172.30.0.34/30",
    "key": "rate",
    "to": 100,
    "from": 50
   },
   {
    "node": "vnet:ralph-router:node=nspr4",
    "iface": "vnet:ralph-router:ipv4=172.30.0.33/30",
    "key": "rate",
    "to": 100,
    "from": 50
   },
   {
    "node": "vnet:ralph-router:node=client2",
    "iface": "vnet:ralph-router:ipv4=172.30.0.42/30",
    "key": "rate",
    "to": 100,
    "from": 50
   },
   {
    "node": "vnet:ralph-router:node=eastr1",
    "iface": "vnet:ralph-router:ipv4=172.30.0.61/30",
    "key": "filter",
    "to": "udp",
    "from": ""
   },
   {
    "node": "vnet:ralph-router:node=client3",
    "iface": "vnet:ralph-router:ipv4=172.30.0.50/30",
    "key": "rate",
    "to": 100,
    "from": 50
   },
   {
    "node": "vnet:ralph-router:node=nspr1",
    "iface": "vnet:ralph-router:ipv4=172.20.13.1/24",
    "key": "rate",
    "to": 100,
    "from": 50
   }
  ]
 },
 {
  "_0_init": "2015-11-17T21:45:50.348Z",
  "revenue": "231.56065",
  "cost_ratio": 132,
  "cost": 22600,
  "counters": {
   "state_changes": 0,
   "rate_changes": 6,
   "statedown": 0,
   "stateup": 0,
   "filter_tcp": 0,
   "rateup": 4,
   "all_changes": 16,
   "filter_udp": 10,
   "filter_changes": 10,
   "ratedown": 2
  },
  "user": "1f930757ac2536166062c3be820bf6b3",
  "time": 188,
  "changes": [
   {
    "node": "vnet:ralph-router:node=client1",
    "iface": "vnet:ralph-router:ipv4=172.30.0.38/30",
    "key": "filter",
    "to": "udp",
    "from": ""
   },
   {
    "node": "vnet:ralph-router:node=westr1",
    "iface": "vnet:ralph-router:ipv4=172.30.0.37/30",
    "key": "filter",
    "to": "udp",
    "from": ""
   },
   {
    "node": "vnet:ralph-router:node=nsps1",
    "iface": "vnet:ralph-router:ipv4=172.20.13.6/24",
    "key": "rate",
    "to": 10,
    "from": 50
   },
   {
    "node": "vnet:ralph-router:node=nspr3",
    "iface": "vnet:ralph-router:ipv4=172.20.13.5/24",
    "key": "rate",
    "to": 10,
    "from": 50
   },
   {
    "node": "vnet:ralph-router:node=nspr2",
    "iface": "vnet:ralph-router:ipv4=172.30.0.109/30",
    "key": "rate",
    "to": 100,
    "from": 50
   },
   {
    "node": "vnet:ralph-router:node=nspr2",
    "iface": "vnet:ralph-router:ipv4=172.30.0.101/30",
    "key": "rate",
    "to": 100,
    "from": 50
   },
   {
    "node": "vnet:ralph-router:node=client5",
    "iface": "vnet:ralph-router:ipv4=172.30.0.58/30",
    "key": "filter",
    "to": "udp",
    "from": ""
   },
   {
    "node": "vnet:ralph-router:node=westr3",
    "iface": "vnet:ralph-router:ipv4=172.30.0.57/30",
    "key": "filter",
    "to": "udp",
    "from": ""
   },
   {
    "node": "vnet:ralph-router:node=client9",
    "iface": "vnet:ralph-router:ipv4=172.30.0.74/30",
    "key": "filter",
    "to": "udp",
    "from": ""
   },
   {
    "node": "vnet:ralph-router:node=client6",
    "iface": "vnet:ralph-router:ipv4=172.30.0.62/30",
    "key": "filter",
    "to": "udp",
    "from": ""
   },
   {
    "node": "vnet:ralph-router:node=eastr3",
    "iface": "vnet:ralph-router:ipv4=172.30.0.73/30",
    "key": "filter",
    "to": "udp",
    "from": ""
   },
   {
    "node": "vnet:ralph-router:node=nspr4",
    "iface": "vnet:ralph-router:ipv4=172.30.0.110/30",
    "key": "rate",
    "to": 100,
    "from": 50
   },
   {
    "node": "vnet:ralph-router:node=custr1",
    "iface": "vnet:ralph-router:ipv4=172.30.0.21/30",
    "key": "filter",
    "to": "udp",
    "from": ""
   },
   {
    "node": "vnet:ralph-router:node=custr1",
    "iface": "vnet:ralph-router:ipv4=172.30.0.102/30",
    "key": "rate",
    "to": 100,
    "from": 50
   },
   {
    "node": "vnet:ralph-router:node=eastr1",
    "iface": "vnet:ralph-router:ipv4=172.30.0.22/30",
    "key": "filter",
    "to": "udp",
    "from": ""
   },
   {
    "node": "vnet:ralph-router:node=eastr1",
    "iface": "vnet:ralph-router:ipv4=172.30.0.61/30",
    "key": "filter",
    "to": "udp",
    "from": ""
   }
  ],
  "net_type": 1,
  "rev": 99
 },
 {
  "_0_init": "2015-11-17T21:53:52.148Z",
  "revenue": "142.39256625000002",
  "cost_ratio": 119,
  "cost": 20350,
  "counters": {
   "state_changes": 2,
   "rate_changes": 8,
   "statedown": 2,
   "stateup": 0,
   "filter_tcp": 0,
   "rateup": 6,
   "all_changes": 16,
   "filter_udp": 6,
   "filter_changes": 6,
   "ratedown": 2
  },
  "user": "72f93ebcb2ecd7bca263be834a3e03a3",
  "time": 167,
  "changes": [
   {
    "node": "vnet:ralph-router:node=client1",
    "iface": "vnet:ralph-router:ipv4=172.30.0.38/30",
    "key": "filter",
    "to": "udp",
    "from": ""
   },
   {
    "node": "vnet:ralph-router:node=westr1",
    "iface": "vnet:ralph-router:ipv4=172.30.0.114/30",
    "key": "rate",
    "to": 100,
    "from": 50
   },
   {
    "node": "vnet:ralph-router:node=westr1",
    "iface": "vnet:ralph-router:ipv4=172.30.0.37/30",
    "key": "filter",
    "to": "udp",
    "from": ""
   },
   {
    "node": "vnet:ralph-router:node=nsps1",
    "iface": "vnet:ralph-router:ipv4=172.20.13.6/24",
    "key": "rate",
    "to": 10,
    "from": 50
   },
   {
    "node": "vnet:ralph-router:node=nspr3",
    "iface": "vnet:ralph-router:ipv4=172.20.13.5/24",
    "key": "rate",
    "to": 10,
    "from": 50
   },
   {
    "node": "vnet:ralph-router:node=nspr2",
    "iface": "vnet:ralph-router:ipv4=172.30.0.101/30",
    "key": "rate",
    "to": 100,
    "from": 50
   },
   {
    "node": "vnet:ralph-router:node=eastr3",
    "iface": "vnet:ralph-router:ipv4=172.30.0.34/30",
    "key": "filter",
    "to": "udp",
    "from": ""
   },
   {
    "node": "vnet:ralph-router:node=server1",
    "iface": "vnet:ralph-router:ipv4=172.30.0.2/30",
    "key": "rate",
    "to": 100,
    "from": 75
   },
   {
    "node": "vnet:ralph-router:node=nspr4",
    "iface": "vnet:ralph-router:ipv4=172.30.0.33/30",
    "key": "filter",
    "to": "udp",
    "from": ""
   },
   {
    "node": "vnet:ralph-router:node=custr1",
    "iface": "vnet:ralph-router:ipv4=172.30.0.21/30",
    "key": "filter",
    "to": "udp",
    "from": ""
   },
   {
    "node": "vnet:ralph-router:node=custr1",
    "iface": "vnet:ralph-router:ipv4=172.30.0.102/30",
    "key": "rate",
    "to": 100,
    "from": 50
   },
   {
    "node": "vnet:ralph-router:node=custr1",
    "iface": "vnet:ralph-router:ipv4=172.30.0.1/30",
    "key": "rate",
    "to": 100,
    "from": 75
   },
   {
    "node": "vnet:ralph-router:node=custr1",
    "iface": "vnet:ralph-router:ipv4=172.30.0.98/30",
    "key": "state",
    "to": "down",
    "from": "up"
   },
   {
    "node": "vnet:ralph-router:node=eastr1",
    "iface": "vnet:ralph-router:ipv4=172.30.0.22/30",
    "key": "filter",
    "to": "udp",
    "from": ""
   },
   {
    "node": "vnet:ralph-router:node=nspr1",
    "iface": "vnet:ralph-router:ipv4=172.30.0.113/30",
    "key": "rate",
    "to": 100,
    "from": 50
   },
   {
    "node": "vnet:ralph-router:node=nspr1",
    "iface": "vnet:ralph-router:ipv4=172.30.0.97/30",
    "key": "state",
    "to": "down",
    "from": "up"
   }
  ],
  "net_type": 1,
  "rev": 61
 },
 {
  "_0_init": "2015-11-17T22:00:59.952Z",
  "revenue": "184.58902225",
  "cost_ratio": 100,
  "cost": 17000,
  "counters": {
   "state_changes": 4,
   "rate_changes": 0,
   "statedown": 4,
   "stateup": 0,
   "filter_tcp": 0,
   "rateup": 0,
   "all_changes": 6,
   "filter_udp": 2,
   "filter_changes": 2,
   "ratedown": 0
  },
  "user": "23847fa77f43100385baddfa015d0ccf",
  "time": 256,
  "changes": [
   {
    "node": "vnet:ralph-router:node=nspr2",
    "iface": "vnet:ralph-router:ipv4=172.30.0.101/30",
    "key": "state",
    "to": "down",
    "from": "up"
   },
   {
    "node": "vnet:ralph-router:node=custr1",
    "iface": "vnet:ralph-router:ipv4=172.30.0.21/30",
    "key": "filter",
    "to": "udp",
    "from": ""
   },
   {
    "node": "vnet:ralph-router:node=custr1",
    "iface": "vnet:ralph-router:ipv4=172.30.0.102/30",
    "key": "state",
    "to": "down",
    "from": "up"
   },
   {
    "node": "vnet:ralph-router:node=custr1",
    "iface": "vnet:ralph-router:ipv4=172.30.0.98/30",
    "key": "state",
    "to": "down",
    "from": "up"
   },
   {
    "node": "vnet:ralph-router:node=eastr1",
    "iface": "vnet:ralph-router:ipv4=172.30.0.22/30",
    "key": "filter",
    "to": "udp",
    "from": ""
   },
   {
    "node": "vnet:ralph-router:node=nspr1",
    "iface": "vnet:ralph-router:ipv4=172.30.0.97/30",
    "key": "state",
    "to": "down",
    "from": "up"
   }
  ],
  "net_type": 1,
  "rev": 79
 },
 {
  "user": "ae0dfd61546ec98c740e79820290f0ea",
  "revenue": "152.23288675",
  "cost_ratio": 123,
  "cost": 16100,
  "counters": {
   "state_changes": 0,
   "rate_changes": 11,
   "statedown": 0,
   "stateup": 0,
   "filter_tcp": 0,
   "rateup": 4,
   "all_changes": 18,
   "filter_udp": 7,
   "filter_changes": 7,
   "ratedown": 7
  },
  "_0_init": "2015-11-18T19:50:55.877Z",
  "time": 246,
  "rev": 104,
  "net_type": 2,
  "changes": [
   {
    "node": "vnet:ralph-router:node=client9",
    "iface": "vnet:ralph-router:ipv4=172.30.0.42/30",
    "key": "rate",
    "to": 10,
    "from": 50
   },
   {
    "node": "vnet:ralph-router:node=upstream-r1",
    "iface": "vnet:ralph-router:ipv4=172.30.0.13/30",
    "key": "rate",
    "to": 10,
    "from": 50
   },
   {
    "node": "vnet:ralph-router:node=upstream-r1",
    "iface": "vnet:ralph-router:ipv4=172.30.0.17/30",
    "key": "filter",
    "to": "udp",
    "from": ""
   },
   {
    "node": "vnet:ralph-router:node=upstream-r1",
    "iface": "vnet:ralph-router:ipv4=172.30.0.77/30",
    "key": "filter",
    "to": "udp",
    "from": ""
   },
   {
    "node": "vnet:ralph-router:node=client2",
    "iface": "vnet:ralph-router:ipv4=172.30.0.14/30",
    "key": "rate",
    "to": 10,
    "from": 50
   },
   {
    "node": "vnet:ralph-router:node=west-r1",
    "iface": "vnet:ralph-router:ipv4=172.30.0.6/30",
    "key": "rate",
    "to": 100,
    "from": 50
   },
   {
    "node": "vnet:ralph-router:node=client4",
    "iface": "vnet:ralph-router:ipv4=172.30.0.22/30",
    "key": "rate",
    "to": 10,
    "from": 50
   },
   {
    "node": "vnet:ralph-router:node=east-r1",
    "iface": "vnet:ralph-router:ipv4=172.30.0.82/30",
    "key": "rate",
    "to": 100,
    "from": 50
   },
   {
    "node": "vnet:ralph-router:node=east-r1",
    "iface": "vnet:ralph-router:ipv4=172.30.0.33/30",
    "key": "filter",
    "to": "udp",
    "from": ""
   },
   {
    "node": "vnet:ralph-router:node=east-r1",
    "iface": "vnet:ralph-router:ipv4=172.30.0.37/30",
    "key": "filter",
    "to": "udp",
    "from": ""
   },
   {
    "node": "vnet:ralph-router:node=east-r1",
    "iface": "vnet:ralph-router:ipv4=172.30.0.78/30",
    "key": "filter",
    "to": "udp",
    "from": ""
   },
   {
    "node": "vnet:ralph-router:node=east-r1",
    "iface": "vnet:ralph-router:ipv4=172.30.0.41/30",
    "key": "rate",
    "to": 10,
    "from": 50
   },
   {
    "node": "vnet:ralph-router:node=client8",
    "iface": "vnet:ralph-router:ipv4=172.30.0.38/30",
    "key": "rate",
    "to": 10,
    "from": 50
   },
   {
    "node": "vnet:ralph-router:node=upstream-r2",
    "iface": "vnet:ralph-router:ipv4=172.30.0.81/30",
    "key": "rate",
    "to": 100,
    "from": 50
   },
   {
    "node": "vnet:ralph-router:node=upstream-r2",
    "iface": "vnet:ralph-router:ipv4=172.30.0.21/30",
    "key": "rate",
    "to": 10,
    "from": 50
   },
   {
    "node": "vnet:ralph-router:node=upstream-r2",
    "iface": "vnet:ralph-router:ipv4=172.30.0.5/30",
    "key": "rate",
    "to": 100,
    "from": 50
   },
   {
    "node": "vnet:ralph-router:node=client3",
    "iface": "vnet:ralph-router:ipv4=172.30.0.18/30",
    "key": "filter",
    "to": "udp",
    "from": ""
   },
   {
    "node": "vnet:ralph-router:node=client7",
    "iface": "vnet:ralph-router:ipv4=172.30.0.34/30",
    "key": "filter",
    "to": "udp",
    "from": ""
   }
  ]
 },
 {
  "_0_init": "2015-11-18T19:58:09.870Z",
  "revenue": "196.84872149999998",
  "cost_ratio": 121,
  "cost": 15800,
  "counters": {
   "state_changes": 4,
   "rate_changes": 26,
   "statedown": 4,
   "stateup": 0,
   "filter_tcp": 0,
   "rateup": 20,
   "all_changes": 30,
   "filter_udp": 0,
   "filter_changes": 0,
   "ratedown": 6
  },
  "user": "187cdd0655fa539ba73bfc6777ec2542",
  "time": 218,
  "changes": [
   {
    "node": "vnet:ralph-router:node=upstream-r1",
    "iface": "vnet:ralph-router:ipv4=172.30.0.9/30",
    "key": "rate",
    "to": 100,
    "from": 50
   },
   {
    "node": "vnet:ralph-router:node=upstream-r1",
    "iface": "vnet:ralph-router:ipv4=172.30.0.13/30",
    "key": "rate",
    "to": 10,
    "from": 50
   },
   {
    "node": "vnet:ralph-router:node=upstream-r1",
    "iface": "vnet:ralph-router:ipv4=172.30.0.85/30",
    "key": "rate",
    "to": 100,
    "from": 50
   },
   {
    "node": "vnet:ralph-router:node=upstream-r1",
    "iface": "vnet:ralph-router:ipv4=172.30.0.17/30",
    "key": "rate",
    "to": 10,
    "from": 50
   },
   {
    "node": "vnet:ralph-router:node=upstream-r1",
    "iface": "vnet:ralph-router:ipv4=172.30.0.70/30",
    "key": "rate",
    "to": 100,
    "from": 50
   },
   {
    "node": "vnet:ralph-router:node=upstream-r1",
    "iface": "vnet:ralph-router:ipv4=172.30.0.77/30",
    "key": "state",
    "to": "down",
    "from": "up"
   },
   {
    "node": "vnet:ralph-router:node=client2",
    "iface": "vnet:ralph-router:ipv4=172.30.0.14/30",
    "key": "rate",
    "to": 10,
    "from": 50
   },
   {
    "node": "vnet:ralph-router:node=client6",
    "iface": "vnet:ralph-router:ipv4=172.30.0.30/30",
    "key": "rate",
    "to": 100,
    "from": 50
   },
   {
    "node": "vnet:ralph-router:node=west-r1",
    "iface": "vnet:ralph-router:ipv4=172.30.0.49/30",
    "key": "rate",
    "to": 100,
    "from": 50
   },
   {
    "node": "vnet:ralph-router:node=west-r1",
    "iface": "vnet:ralph-router:ipv4=172.30.0.57/30",
    "key": "rate",
    "to": 100,
    "from": 50
   },
   {
    "node": "vnet:ralph-router:node=west-r1",
    "iface": "vnet:ralph-router:ipv4=172.30.0.6/30",
    "key": "rate",
    "to": 100,
    "from": 50
   },
   {
    "node": "vnet:ralph-router:node=west-r1",
    "iface": "vnet:ralph-router:ipv4=172.30.0.53/30",
    "key": "rate",
    "to": 100,
    "from": 50
   },
   {
    "node": "vnet:ralph-router:node=west-r1",
    "iface": "vnet:ralph-router:ipv4=172.30.0.86/30",
    "key": "rate",
    "to": 100,
    "from": 50
   },
   {
    "node": "vnet:ralph-router:node=firewall1",
    "iface": "vnet:ralph-router:ipv4=172.30.0.69/30",
    "key": "rate",
    "to": 100,
    "from": 50
   },
   {
    "node": "vnet:ralph-router:node=client4",
    "iface": "vnet:ralph-router:ipv4=172.30.0.22/30",
    "key": "rate",
    "to": 10,
    "from": 50
   },
   {
    "node": "vnet:ralph-router:node=client1",
    "iface": "vnet:ralph-router:ipv4=172.30.0.10/30",
    "key": "rate",
    "to": 100,
    "from": 50
   },
   {
    "node": "vnet:ralph-router:node=east-r1",
    "iface": "vnet:ralph-router:ipv4=172.30.0.82/30",
    "key": "state",
    "to": "down",
    "from": "up"
   },
   {
    "node": "vnet:ralph-router:node=east-r1",
    "iface": "vnet:ralph-router:ipv4=172.30.0.78/30",
    "key": "state",
    "to": "down",
    "from": "up"
   },
   {
    "node": "vnet:ralph-router:node=client12",
    "iface": "vnet:ralph-router:ipv4=172.30.0.58/30",
    "key": "rate",
    "to": 100,
    "from": 50
   },
   {
    "node": "vnet:ralph-router:node=client10",
    "iface": "vnet:ralph-router:ipv4=172.30.0.50/30",
    "key": "rate",
    "to": 100,
    "from": 50
   },
   {
    "node": "vnet:ralph-router:node=client11",
    "iface": "vnet:ralph-router:ipv4=172.30.0.54/30",
    "key": "rate",
    "to": 100,
    "from": 50
   },
   {
    "node": "vnet:ralph-router:node=upstream-r2",
    "iface": "vnet:ralph-router:ipv4=172.30.0.81/30",
    "key": "state",
    "to": "down",
    "from": "up"
   },
   {
    "node": "vnet:ralph-router:node=upstream-r2",
    "iface": "vnet:ralph-router:ipv4=172.30.0.74/30",
    "key": "rate",
    "to": 100,
    "from": 50
   },
   {
    "node": "vnet:ralph-router:node=upstream-r2",
    "iface": "vnet:ralph-router:ipv4=172.30.0.29/30",
    "key": "rate",
    "to": 100,
    "from": 50
   },
   {
    "node": "vnet:ralph-router:node=upstream-r2",
    "iface": "vnet:ralph-router:ipv4=172.30.0.25/30",
    "key": "rate",
    "to": 100,
    "from": 50
   },
   {
    "node": "vnet:ralph-router:node=upstream-r2",
    "iface": "vnet:ralph-router:ipv4=172.30.0.21/30",
    "key": "rate",
    "to": 10,
    "from": 50
   },
   {
    "node": "vnet:ralph-router:node=upstream-r2",
    "iface": "vnet:ralph-router:ipv4=172.30.0.5/30",
    "key": "rate",
    "to": 100,
    "from": 50
   },
   {
    "node": "vnet:ralph-router:node=client3",
    "iface": "vnet:ralph-router:ipv4=172.30.0.18/30",
    "key": "rate",
    "to": 10,
    "from": 50
   },
   {
    "node": "vnet:ralph-router:node=firewall2",
    "iface": "vnet:ralph-router:ipv4=172.30.0.73/30",
    "key": "rate",
    "to": 100,
    "from": 50
   },
   {
    "node": "vnet:ralph-router:node=client5",
    "iface": "vnet:ralph-router:ipv4=172.30.0.26/30",
    "key": "rate",
    "to": 100,
    "from": 50
   }
  ],
  "net_type": 2,
  "rev": 135
 },
 {
  "user": "38d1ac9b11c923e424eadd18024ad2b9",
  "revenue": "217.37450899999996",
  "cost_ratio": 98,
  "cost": 12750,
  "counters": {
   "state_changes": 0,
   "rate_changes": 10,
   "statedown": 0,
   "stateup": 0,
   "filter_tcp": 0,
   "rateup": 0,
   "all_changes": 12,
   "filter_udp": 2,
   "filter_changes": 2,
   "ratedown": 10
  },
  "_0_init": "2015-11-18T21:49:24.248Z",
  "time": 25,
  "rev": 149,
  "net_type": 2,
  "changes": [
   {
    "node": "vnet:ralph-router:node=client9",
    "iface": "vnet:ralph-router:ipv4=172.30.0.42/30",
    "key": "rate",
    "to": 25,
    "from": 50
   },
   {
    "node": "vnet:ralph-router:node=upstream-r1",
    "iface": "vnet:ralph-router:ipv4=172.30.0.13/30",
    "key": "rate",
    "to": 25,
    "from": 50
   },
   {
    "node": "vnet:ralph-router:node=upstream-r1",
    "iface": "vnet:ralph-router:ipv4=172.30.0.17/30",
    "key": "rate",
    "to": 25,
    "from": 50
   },
   {
    "node": "vnet:ralph-router:node=client2",
    "iface": "vnet:ralph-router:ipv4=172.30.0.14/30",
    "key": "rate",
    "to": 25,
    "from": 50
   },
   {
    "node": "vnet:ralph-router:node=client4",
    "iface": "vnet:ralph-router:ipv4=172.30.0.22/30",
    "key": "rate",
    "to": 25,
    "from": 50
   },
   {
    "node": "vnet:ralph-router:node=east-r1",
    "iface": "vnet:ralph-router:ipv4=172.30.0.37/30",
    "key": "rate",
    "to": 25,
    "from": 50
   },
   {
    "node": "vnet:ralph-router:node=east-r1",
    "iface": "vnet:ralph-router:ipv4=172.30.0.41/30",
    "key": "rate",
    "to": 25,
    "from": 50
   },
   {
    "node": "vnet:ralph-router:node=client8",
    "iface": "vnet:ralph-router:ipv4=172.30.0.38/30",
    "key": "rate",
    "to": 25,
    "from": 50
   },
   {
    "node": "vnet:ralph-router:node=upstream-r2",
    "iface": "vnet:ralph-router:ipv4=172.30.0.74/30",
    "key": "filter",
    "to": "udp",
    "from": ""
   },
   {
    "node": "vnet:ralph-router:node=upstream-r2",
    "iface": "vnet:ralph-router:ipv4=172.30.0.21/30",
    "key": "rate",
    "to": 25,
    "from": 50
   },
   {
    "node": "vnet:ralph-router:node=client3",
    "iface": "vnet:ralph-router:ipv4=172.30.0.18/30",
    "key": "rate",
    "to": 25,
    "from": 50
   },
   {
    "node": "vnet:ralph-router:node=firewall2",
    "iface": "vnet:ralph-router:ipv4=172.30.0.73/30",
    "key": "filter",
    "to": "udp",
    "from": ""
   }
  ]
 },
 {
  "user": "b8db1b0d7f8e50a095a419b7e0f04134",
  "revenue": "236.39726125",
  "cost_ratio": 119,
  "cost": 15500,
  "counters": {
   "state_changes": 0,
   "rate_changes": 2,
   "statedown": 0,
   "stateup": 0,
   "filter_tcp": 0,
   "rateup": 2,
   "all_changes": 6,
   "filter_udp": 4,
   "filter_changes": 4,
   "ratedown": 0
  },
  "_0_init": "2015-11-18T22:13:13.493Z",
  "time": 141,
  "rev": 163,
  "net_type": 2,
  "changes": [
   {
    "node": "vnet:ralph-router:node=upstream-r1",
    "iface": "vnet:ralph-router:ipv4=172.30.0.70/30",
    "key": "filter",
    "to": "udp",
    "from": ""
   },
   {
    "node": "vnet:ralph-router:node=upstream-r1",
    "iface": "vnet:ralph-router:ipv4=172.30.0.77/30",
    "key": "filter",
    "to": "udp",
    "from": ""
   },
   {
    "node": "vnet:ralph-router:node=firewall1",
    "iface": "vnet:ralph-router:ipv4=172.30.0.69/30",
    "key": "filter",
    "to": "udp",
    "from": ""
   },
   {
    "node": "vnet:ralph-router:node=east-r1",
    "iface": "vnet:ralph-router:ipv4=172.30.0.78/30",
    "key": "filter",
    "to": "udp",
    "from": ""
   },
   {
    "node": "vnet:ralph-router:node=upstream-r2",
    "iface": "vnet:ralph-router:ipv4=172.30.0.74/30",
    "key": "rate",
    "to": 100,
    "from": 50
   },
   {
    "node": "vnet:ralph-router:node=firewall2",
    "iface": "vnet:ralph-router:ipv4=172.30.0.73/30",
    "key": "rate",
    "to": 100,
    "from": 50
   }
  ]
 },
 {
  "_0_init": "2015-11-18T22:17:52.941Z",
  "revenue": "216.652984625",
  "cost_ratio": 121,
  "cost": 15750,
  "counters": {
   "state_changes": 0,
   "rate_changes": 4,
   "statedown": 0,
   "stateup": 0,
   "filter_tcp": 0,
   "rateup": 4,
   "all_changes": 8,
   "filter_udp": 4,
   "filter_changes": 4,
   "ratedown": 0
  },
  "user": "d12b6f792311511fdc10d00acb9b2330",
  "time": 28,
  "changes": [
   {
    "node": "vnet:ralph-router:node=upstream-r1",
    "iface": "vnet:ralph-router:ipv4=172.30.0.70/30",
    "key": "filter",
    "to": "udp",
    "from": ""
   },
   {
    "node": "vnet:ralph-router:node=upstream-r1",
    "iface": "vnet:ralph-router:ipv4=172.30.0.77/30",
    "key": "filter",
    "to": "udp",
    "from": ""
   },
   {
    "node": "vnet:ralph-router:node=firewall1",
    "iface": "vnet:ralph-router:ipv4=172.30.0.69/30",
    "key": "filter",
    "to": "udp",
    "from": ""
   },
   {
    "node": "vnet:ralph-router:node=client4",
    "iface": "vnet:ralph-router:ipv4=172.30.0.22/30",
    "key": "rate",
    "to": 75,
    "from": 50
   },
   {
    "node": "vnet:ralph-router:node=east-r1",
    "iface": "vnet:ralph-router:ipv4=172.30.0.78/30",
    "key": "filter",
    "to": "udp",
    "from": ""
   },
   {
    "node": "vnet:ralph-router:node=upstream-r2",
    "iface": "vnet:ralph-router:ipv4=172.30.0.74/30",
    "key": "rate",
    "to": 100,
    "from": 50
   },
   {
    "node": "vnet:ralph-router:node=upstream-r2",
    "iface": "vnet:ralph-router:ipv4=172.30.0.21/30",
    "key": "rate",
    "to": 75,
    "from": 50
   },
   {
    "node": "vnet:ralph-router:node=firewall2",
    "iface": "vnet:ralph-router:ipv4=172.30.0.73/30",
    "key": "rate",
    "to": 100,
    "from": 50
   }
  ],
  "net_type": 2,
  "rev": 149
 },
 {
  "_0_init": "2015-11-18T22:20:51.229Z",
  "revenue": "159.39112749999998",
  "cost_ratio": 115,
  "cost": 15000,
  "counters": {
   "state_changes": 2,
   "rate_changes": 2,
   "statedown": 2,
   "stateup": 0,
   "filter_tcp": 0,
   "rateup": 2,
   "all_changes": 8,
   "filter_udp": 4,
   "filter_changes": 4,
   "ratedown": 0
  },
  "user": "5fa1f27e7d2f5b9b1755b1290574e15e",
  "time": 236,
  "changes": [
   {
    "node": "vnet:ralph-router:node=upstream-r1",
    "iface": "vnet:ralph-router:ipv4=172.30.0.70/30",
    "key": "rate",
    "to": 100,
    "from": 50
   },
   {
    "node": "vnet:ralph-router:node=upstream-r1",
    "iface": "vnet:ralph-router:ipv4=172.30.0.77/30",
    "key": "state",
    "to": "down",
    "from": "up"
   },
   {
    "node": "vnet:ralph-router:node=firewall1",
    "iface": "vnet:ralph-router:ipv4=172.30.0.69/30",
    "key": "rate",
    "to": 100,
    "from": 50
   },
   {
    "node": "vnet:ralph-router:node=client4",
    "iface": "vnet:ralph-router:ipv4=172.30.0.22/30",
    "key": "filter",
    "to": "udp",
    "from": ""
   },
   {
    "node": "vnet:ralph-router:node=east-r1",
    "iface": "vnet:ralph-router:ipv4=172.30.0.78/30",
    "key": "state",
    "to": "down",
    "from": "up"
   },
   {
    "node": "vnet:ralph-router:node=upstream-r2",
    "iface": "vnet:ralph-router:ipv4=172.30.0.74/30",
    "key": "filter",
    "to": "udp",
    "from": ""
   },
   {
    "node": "vnet:ralph-router:node=upstream-r2",
    "iface": "vnet:ralph-router:ipv4=172.30.0.21/30",
    "key": "filter",
    "to": "udp",
    "from": ""
   },
   {
    "node": "vnet:ralph-router:node=firewall2",
    "iface": "vnet:ralph-router:ipv4=172.30.0.73/30",
    "key": "filter",
    "to": "udp",
    "from": ""
   }
  ],
  "net_type": 2,
  "rev": 109
 },
 {
  "_0_init": "2015-11-18T23:29:33.421Z",
  "revenue": "233.951043",
  "cost_ratio": 119,
  "cost": 15500,
  "counters": {
   "state_changes": 0,
   "rate_changes": 2,
   "statedown": 0,
   "stateup": 0,
   "filter_tcp": 0,
   "rateup": 2,
   "all_changes": 6,
   "filter_udp": 4,
   "filter_changes": 4,
   "ratedown": 0
  },
  "user": "ed48788923d6c693234a935c351918f9",
  "time": 34,
  "changes": [
   {
    "node": "vnet:ralph-router:node=upstream-r1",
    "iface": "vnet:ralph-router:ipv4=172.30.0.70/30",
    "key": "filter",
    "to": "udp",
    "from": ""
   },
   {
    "node": "vnet:ralph-router:node=upstream-r1",
    "iface": "vnet:ralph-router:ipv4=172.30.0.77/30",
    "key": "rate",
    "to": 100,
    "from": 50
   },
   {
    "node": "vnet:ralph-router:node=firewall1",
    "iface": "vnet:ralph-router:ipv4=172.30.0.69/30",
    "key": "filter",
    "to": "udp",
    "from": ""
   },
   {
    "node": "vnet:ralph-router:node=east-r1",
    "iface": "vnet:ralph-router:ipv4=172.30.0.78/30",
    "key": "rate",
    "to": 100,
    "from": 50
   },
   {
    "node": "vnet:ralph-router:node=upstream-r2",
    "iface": "vnet:ralph-router:ipv4=172.30.0.74/30",
    "key": "filter",
    "to": "udp",
    "from": ""
   },
   {
    "node": "vnet:ralph-router:node=firewall2",
    "iface": "vnet:ralph-router:ipv4=172.30.0.73/30",
    "key": "filter",
    "to": "udp",
    "from": ""
   }
  ],
  "net_type": 2,
  "rev": 161
 },
 {
  "user": "aa884da2c5cabe80cebf05b17454205f",
  "revenue": "146.79216762500002",
  "cost_ratio": 103,
  "cost": 13500,
  "counters": {
   "state_changes": 2,
   "rate_changes": 0,
   "statedown": 2,
   "stateup": 0,
   "filter_tcp": 0,
   "rateup": 0,
   "all_changes": 4,
   "filter_udp": 2,
   "filter_changes": 2,
   "ratedown": 0
  },
  "_0_init": "2015-12-02T08:43:26.407Z",
  "time": 193,
  "rev": 101,
  "net_type": 2,
  "changes": [
   {
    "node": "vnet:ralph-router:node=upstream-r1",
    "iface": "vnet:ralph-router:ipv4=172.30.0.70/30",
    "key": "filter",
    "to": "udp",
    "from": ""
   },
   {
    "node": "vnet:ralph-router:node=firewall1",
    "iface": "vnet:ralph-router:ipv4=172.30.0.69/30",
    "key": "filter",
    "to": "udp",
    "from": ""
   },
   {
    "node": "vnet:ralph-router:node=upstream-r2",
    "iface": "vnet:ralph-router:ipv4=172.30.0.74/30",
    "key": "state",
    "to": "down",
    "from": "up"
   },
   {
    "node": "vnet:ralph-router:node=firewall2",
    "iface": "vnet:ralph-router:ipv4=172.30.0.73/30",
    "key": "state",
    "to": "down",
    "from": "up"
   }
  ]
 },
 {
  "user": "dd2fe56ede143fd1bc7dc49c0d43dd81",
  "revenue": "144.01444025",
  "cost_ratio": 96,
  "cost": 12600,
  "counters": {
   "state_changes": 4,
   "rate_changes": 6,
   "statedown": 4,
   "stateup": 0,
   "filter_tcp": 0,
   "rateup": 4,
   "all_changes": 10,
   "filter_udp": 0,
   "filter_changes": 0,
   "ratedown": 2
  },
  "_0_init": "2015-12-03T12:11:36.687Z",
  "time": 149,
  "rev": 99,
  "net_type": 2,
  "changes": [
   {
    "node": "vnet:ralph-router:node=upstream-r1",
    "iface": "vnet:ralph-router:ipv4=172.30.0.85/30",
    "key": "rate",
    "to": 10,
    "from": 50
   },
   {
    "node": "vnet:ralph-router:node=upstream-r1",
    "iface": "vnet:ralph-router:ipv4=172.30.0.70/30",
    "key": "state",
    "to": "down",
    "from": "up"
   },
   {
    "node": "vnet:ralph-router:node=west-r1",
    "iface": "vnet:ralph-router:ipv4=172.30.0.6/30",
    "key": "rate",
    "to": 100,
    "from": 50
   },
   {
    "node": "vnet:ralph-router:node=west-r1",
    "iface": "vnet:ralph-router:ipv4=172.30.0.86/30",
    "key": "rate",
    "to": 10,
    "from": 50
   },
   {
    "node": "vnet:ralph-router:node=firewall1",
    "iface": "vnet:ralph-router:ipv4=172.30.0.69/30",
    "key": "state",
    "to": "down",
    "from": "up"
   },
   {
    "node": "vnet:ralph-router:node=east-r1",
    "iface": "vnet:ralph-router:ipv4=172.30.0.82/30",
    "key": "state",
    "to": "down",
    "from": "up"
   },
   {
    "node": "vnet:ralph-router:node=upstream-r2",
    "iface": "vnet:ralph-router:ipv4=172.30.0.81/30",
    "key": "state",
    "to": "down",
    "from": "up"
   },
   {
    "node": "vnet:ralph-router:node=upstream-r2",
    "iface": "vnet:ralph-router:ipv4=172.30.0.74/30",
    "key": "rate",
    "to": 100,
    "from": 50
   },
   {
    "node": "vnet:ralph-router:node=upstream-r2",
    "iface": "vnet:ralph-router:ipv4=172.30.0.5/30",
    "key": "rate",
    "to": 100,
    "from": 50
   },
   {
    "node": "vnet:ralph-router:node=firewall2",
    "iface": "vnet:ralph-router:ipv4=172.30.0.73/30",
    "key": "rate",
    "to": 100,
    "from": 50
   }
  ]
 },
 {
  "user": "7410ab2b7e88516e5f00588874d6668e",
  "revenue": "158.35834725",
  "cost_ratio": 100,
  "cost": 17000,
  "counters": {
   "state_changes": 0,
   "rate_changes": 0,
   "statedown": 0,
   "stateup": 0,
   "filter_tcp": 0,
   "rateup": 0,
   "all_changes": 0,
   "filter_udp": 0,
   "filter_changes": 0,
   "ratedown": 0
  },
  "_0_init": "2015-11-16T17:30:03.405Z",
  "time": 4,
  "changes": [],
  "net_type": 1,
  "rev": 68
 },
 {
  "user": "4c0a08e49cbbf857e3004ebcc33bff8f",
  "revenue": "149.02376985",
  "cost_ratio": 100,
  "cost": 17000,
  "counters": {
   "state_changes": 0,
   "rate_changes": 0,
   "statedown": 0,
   "stateup": 0,
   "filter_tcp": 0,
   "rateup": 0,
   "all_changes": 0,
   "filter_udp": 0,
   "filter_changes": 0,
   "ratedown": 0
  },
  "_0_init": "2015-11-16T23:39:06.861Z",
  "time": 4,
  "changes": [],
  "net_type": 1,
  "rev": 64
 },
 {
  "user": "51a9f0e81cfef5e5a7248363499fc166",
  "revenue": "178.70415225",
  "cost_ratio": 100,
  "cost": 17000,
  "counters": {
   "state_changes": 0,
   "rate_changes": 0,
   "statedown": 0,
   "stateup": 0,
   "filter_tcp": 0,
   "rateup": 0,
   "all_changes": 0,
   "filter_udp": 0,
   "filter_changes": 0,
   "ratedown": 0
  },
  "_0_init": "2015-11-16T23:42:16.460Z",
  "time": 0,
  "changes": [],
  "net_type": 1,
  "rev": 77
 },
 {
  "user": "adac485924f1326f4a2e615074e98079",
  "revenue": "203.57839075",
  "cost_ratio": 108,
  "cost": 18500,
  "counters": {
   "state_changes": 0,
   "rate_changes": 0,
   "statedown": 0,
   "stateup": 0,
   "filter_tcp": 0,
   "rateup": 0,
   "all_changes": 3,
   "filter_udp": 3,
   "filter_changes": 3,
   "ratedown": 0
  },
  "_0_init": "2015-11-17T18:40:11.848Z",
  "time": 4,
  "changes": [
   {
    "node": "vnet:ralph-router:node=westr2",
    "iface": "vnet:ralph-router:ipv4=172.30.0.13/30",
    "key": "filter",
    "to": "udp",
    "from": ""
   },
   {
    "node": "vnet:ralph-router:node=eastr1",
    "iface": "vnet:ralph-router:ipv4=172.30.0.22/30",
    "key": "filter",
    "to": "udp",
    "from": ""
   },
   {
    "node": "vnet:ralph-router:node=nspr1",
    "iface": "vnet:ralph-router:ipv4=172.30.0.97/30",
    "key": "filter",
    "to": "udp",
    "from": ""
   }
  ],
  "net_type": 1,
  "rev": 87
 },
 {
  "user": "3bc116fe4ad72a5fc64735864bcb8739",
  "revenue": "179.175437",
  "cost_ratio": 100,
  "cost": 17000,
  "counters": {
   "state_changes": 0,
   "rate_changes": 0,
   "statedown": 0,
   "stateup": 0,
   "filter_tcp": 0,
   "rateup": 0,
   "all_changes": 0,
   "filter_udp": 0,
   "filter_changes": 0,
   "ratedown": 0
  },
  "_0_init": "2015-11-17T20:19:00.520Z",
  "time": 1,
  "changes": [],
  "net_type": 1,
  "rev": 77
 },
 {
  "user": "09ec86f84fcac1f586b0c8338ac72e5d",
  "revenue": "214.44227174999997",
  "cost_ratio": 100,
  "cost": 17000,
  "counters": {
   "state_changes": 0,
   "rate_changes": 0,
   "statedown": 0,
   "stateup": 0,
   "filter_tcp": 0,
   "rateup": 0,
   "all_changes": 0,
   "filter_udp": 0,
   "filter_changes": 0,
   "ratedown": 0
  },
  "_0_init": "2015-11-17T22:21:24.497Z",
  "time": 0,
  "changes": [],
  "net_type": 1,
  "rev": 92
 },
 {
  "user": "4e4c8a690afd4bccf7dc2e3be5027871",
  "revenue": "117.0610665",
  "cost_ratio": 100,
  "cost": 13000,
  "counters": {
   "state_changes": 0,
   "rate_changes": 0,
   "statedown": 0,
   "stateup": 0,
   "filter_tcp": 0,
   "rateup": 0,
   "all_changes": 0,
   "filter_udp": 0,
   "filter_changes": 0,
   "ratedown": 0
  },
  "_0_init": "2015-11-19T19:54:48.899Z",
  "time": 1,
  "changes": [],
  "net_type": 2,
  "rev": 80
 },
 {
  "revenue": 194.12248862500002,
  "cost_ratio": 100,
  "cost": 17000,
  "counters": {
   "state_changes": 0,
   "rate_changes": 0,
   "statedown": 0,
   "stateup": 0,
   "filter_tcp": 0,
   "rateup": 0,
   "all_changes": 0,
   "filter_udp": 0,
   "filter_changes": 0,
   "ratedown": 0
  },
  "user": "7317424b51bb18fe26afe5e486a214c0",
  "time": -1,
  "changes": [],
  "net_type": 1,
  "rev": 83
 },
 {
  "revenue": 135.98243371249998,
  "cost_ratio": 100,
  "cost": 17000,
  "counters": {
   "state_changes": 0,
   "rate_changes": 0,
   "statedown": 0,
   "stateup": 0,
   "filter_tcp": 0,
   "rateup": 0,
   "all_changes": 0,
   "filter_udp": 0,
   "filter_changes": 0,
   "ratedown": 0
  },
  "user": "09e05dc7ae4c73e959a6a4932f8fc4de",
  "time": -1,
  "changes": [],
  "net_type": 1,
  "rev": 58
 },
 {
  "revenue": 177.278508,
  "cost_ratio": 100,
  "cost": 17000,
  "counters": {
   "state_changes": 0,
   "rate_changes": 0,
   "statedown": 0,
   "stateup": 0,
   "filter_tcp": 0,
   "rateup": 0,
   "all_changes": 0,
   "filter_udp": 0,
   "filter_changes": 0,
   "ratedown": 0
  },
  "user": "6a8ba107366c2df0a663ec51576e19c3",
  "time": -1,
  "changes": [],
  "net_type": 1,
  "rev": 76
 },
 {
  "revenue": 135.426892575,
  "cost_ratio": 100,
  "cost": 17000,
  "counters": {
   "state_changes": 0,
   "rate_changes": 0,
   "statedown": 0,
   "stateup": 0,
   "filter_tcp": 0,
   "rateup": 0,
   "all_changes": 0,
   "filter_udp": 0,
   "filter_changes": 0,
   "ratedown": 0
  },
  "user": "0ef2c4d85db91e83c40290ffebc1753e",
  "time": -1,
  "changes": [],
  "net_type": 1,
  "rev": 58
 },
 {
  "revenue": 226.71915825,
  "cost_ratio": 97,
  "cost": 16500,
  "counters": {
   "state_changes": 2,
   "rate_changes": 0,
   "statedown": 2,
   "stateup": 0,
   "filter_tcp": 0,
   "rateup": 0,
   "all_changes": 2,
   "filter_udp": 0,
   "filter_changes": 0,
   "ratedown": 0
  },
  "user": "02d06522df76c169407471fdc6175182",
  "time": -1,
  "changes": [
   {
    "node": "vnet:ralph-router:node=nspr3",
    "iface": "vnet:ralph-router:ipv4=172.20.13.5/24",
    "key": "state",
    "to": "down",
    "from": "up"
   },
   {
    "node": "vnet:ralph-router:node=nsps1",
    "iface": "vnet:ralph-router:ipv4=172.20.13.6/24",
    "key": "state",
    "to": "down",
    "from": "up"
   }
  ],
  "net_type": 1,
  "rev": 97
 },
 {
  "revenue": 187.45401224999998,
  "cost_ratio": 100,
  "cost": 17000,
  "counters": {
   "state_changes": 0,
   "rate_changes": 0,
   "statedown": 0,
   "stateup": 0,
   "filter_tcp": 0,
   "rateup": 0,
   "all_changes": 0,
   "filter_udp": 0,
   "filter_changes": 0,
   "ratedown": 0
  },
  "user": "8b35393c1867a80bf23d5fad76946beb",
  "time": -1,
  "changes": [],
  "net_type": 1,
  "rev": 80
 }
]